lab3/data/task1_sin_500.csv

Model,MDO34,
Firmware Version,CF:91.1CT FV:v1.6.0,
,,
Waveform Type,ANALOG,ANALOG
Point Format,Y,Y
Horizontal Units,"s","s"
Horizontal Scale,0.02,0.02
Horizontal Delay,0,0
Sample Interval,2E-05,2E-05
Record Length,10000,10000
Gating,0.0% to 100.0%,0.0% to 100.0%
Probe Attenuation,1X,1X
Vertical Units,"V","V"
Vertical Offset,30,-50
Vertical Scale,1,1
Vertical Position,1.2,-2
,,
,,
,,
Label,"",""
TIME,CH1,CH2
-0.1,0.04,-0.04
-0.09998,0.12,-0.04
-0.09996,0.16,-0.04
-0.09994,0.24,-0.04
-0.09992,0.28,-0.04
-0.0999,0.36,0
-0.09988,0.4,0
-0.09986,0.48,-0.04
-0.09984,0.52,-0.04
-0.09982,0.6,-0.04
-0.0998,0.64,-0.04
-0.09978,0.68,0
-0.09976,0.72,0
-0.09974,0.76,0
-0.09972,0.8,0
-0.0997,0.84,-0.04
-0.09968,0.88,0
-0.09966,0.88,0
-0.09964,0.92,0
-0.09962,0.92,0
-0.0996,0.96,0.04
-0.09958,0.96,-0.04
-0.09956,0.96,0.04
-0.09954,0.96,-0.04
-0.09952,1,0
-0.0995,1,0.04
-0.09948,0.96,0.04
-0.09946,0.96,0
-0.09944,0.96,0.04
-0.09942,0.96,0
-0.0994,0.92,0.04
-0.09938,0.88,0.04
-0.09936,0.88,0
-0.09934,0.88,0
-0.09932,0.8,0
-0.0993,0.8,0.04
-0.09928,0.68,0.04
-0.09926,0.68,0.04
-0.09924,0.64,0.04
-0.09922,0.56,0.04
-0.0992,0.52,0.04
-0.09918,0.48,0.08
-0.09916,0.36,0.04
-0.09914,0.32,0.04
-0.09912,0.28,0.04
-0.0991,0.24,0.04
-0.09908,0.16,0.04
-0.09906,0.08,0.04
-0.09904,0.04,0.04
-0.09902,-0.04,0.04
-0.099,-0.12,0.04
-0.09898,-0.16,0.04
-0.09896,-0.2,0.04
-0.09894,-0.28,0.04
-0.09892,-0.36,0.04
-0.0989,-0.4,0
-0.09888,-0.48,0
-0.09886,-0.52,0.04
-0.09884,-0.6,0.04
-0.09882,-0.6,0.04
-0.0988,-0.64,0.04
-0.09878,-0.72,0.04
-0.09876,-0.76,0.04
-0.09874,-0.8,0
-0.09872,-0.84,0.04
-0.0987,-0.88,0
-0.09868,-0.92,0.04
-0.09866,-0.96,0
-0.09864,-0.92,0.04
-0.09862,-0.96,0
-0.0986,-0.96,0.04
-0.09858,-1.04,0
-0.09856,-1.04,0
-0.09854,-1,0
-0.09852,-1.04,0.04
-0.0985,-1.04,0
-0.09848,-1.04,0
-0.09846,-1,0.04
-0.09844,-1,0.04
-0.09842,-1,0
-0.0984,-0.96,-0.04
-0.09838,-0.96,0
-0.09836,-0.92,0
-0.09834,-0.88,0
-0.09832,-0.8,0
-0.0983,-0.8,0
-0.09828,-0.72,-0.04
-0.09826,-0.68,-0.04
-0.09824,-0.64,0
-0.09822,-0.6,0
-0.0982,-0.56,0
-0.09818,-0.48,0
-0.09816,-0.44,-0.04
-0.09814,-0.4,0
-0.09812,-0.32,0
-0.0981,-0.28,0
-0.09808,-0.2,-0.04
-0.09806,-0.2,-0.04
-0.09804,-0.08,-0.04
-0.09802,0,-0.04
-0.098,0.04,0
-0.09798,0.08,-0.04
-0.09796,0.16,0
-0.09794,0.24,0
-0.09792,0.32,0
-0.0979,0.36,0
-0.09788,0.4,-0.08
-0.09786,0.48,-0.04
-0.09784,0.48,0
-0.09782,0.6,0
-0.0978,0.64,0
-0.09778,0.68,-0.04
-0.09776,0.72,-0.04
-0.09774,0.76,-0.04
-0.09772,0.84,0
-0.0977,0.84,0
-0.09768,0.88,0
-0.09766,0.88,0
-0.09764,0.92,0.04
-0.09762,0.96,-0.04
-0.0976,0.96,0
-0.09758,0.96,0
-0.09756,0.96,0.04
-0.09754,1,-0.04
-0.09752,1,0
-0.0975,0.96,0
-0.09748,0.96,0
-0.09746,1,0
-0.09744,0.96,0
-0.09742,0.92,0.04
-0.0974,0.92,0.04
-0.09738,0.88,0.04
-0.09736,0.84,0
-0.09734,0.84,0
-0.09732,0.8,0
-0.0973,0.76,0.04
-0.09728,0.72,0
-0.09726,0.72,0.04
-0.09724,0.6,0.04
-0.09722,0.56,0.04
-0.0972,0.52,0.04
-0.09718,0.48,0
-0.09716,0.4,0.04
-0.09714,0.32,0.04
-0.09712,0.32,0.04
-0.0971,0.2,0.04
-0.09708,0.16,0.04
-0.09706,0.12,0.04
-0.09704,0.04,0.04
-0.09702,0,0.04
-0.097,-0.08,0.04
-0.09698,-0.16,0.08
-0.09696,-0.2,0.08
-0.09694,-0.32,0.04
-0.09692,-0.32,0.04
-0.0969,-0.4,0.04
-0.09688,-0.48,0
-0.09686,-0.52,0
-0.09684,-0.6,0
-0.09682,-0.6,0.04
-0.0968,-0.68,0.04
-0.09678,-0.76,0
-0.09676,-0.8,0.04
-0.09674,-0.84,0.04
-0.09672,-0.88,0
-0.0967,-0.88,0
-0.09668,-0.92,0
-0.09666,-0.96,0
-0.09664,-0.96,0.04
-0.09662,-0.96,0
-0.0966,-0.96,0.04
-0.09658,-1.04,0.04
-0.09656,-1,0
-0.09654,-1.04,0.04
-0.09652,-1,0
-0.0965,-1.04,0
-0.09648,-1,0
-0.09646,-1.04,0
-0.09644,-1,0
-0.09642,-0.96,0
-0.0964,-0.96,0
-0.09638,-0.92,0
-0.09636,-0.92,-0.04
-0.09634,-0.88,0
-0.09632,-0.8,0
-0.0963,-0.76,0
-0.09628,-0.76,0
-0.09626,-0.72,-0.04
-0.09624,-0.68,0
-0.09622,-0.56,0
-0.0962,-0.52,0
-0.09618,-0.52,0
-0.09616,-0.44,0
-0.09614,-0.4,0
-0.09612,-0.32,-0.04
-0.0961,-0.24,-0.04
-0.09608,-0.2,-0.04
-0.09606,-0.16,0
-0.09604,-0.08,-0.04
-0.09602,-0.04,-0.04
-0.096,0.04,0
-0.09598,0.12,0
-0.09596,0.16,-0.04
-0.09594,0.24,0
-0.09592,0.32,-0.04
-0.0959,0.36,0
-0.09588,0.4,-0.04
-0.09586,0.48,0
-0.09584,0.52,0
-0.09582,0.6,0
-0.0958,0.64,-0.04
-0.09578,0.68,-0.04
-0.09576,0.72,0
-0.09574,0.76,0
-0.09572,0.76,0
-0.0957,0.8,0.04
-0.09568,0.88,-0.04
-0.09566,0.88,-0.04
-0.09564,0.92,0.04
-0.09562,0.96,0
-0.0956,0.96,0.04
-0.09558,0.96,0.04
-0.09556,1,0
-0.09554,0.96,0.04
-0.09552,1,-0.04
-0.0955,0.96,0
-0.09548,0.96,0
-0.09546,1,0.04
-0.09544,0.96,0.04
-0.09542,0.96,0
-0.0954,0.92,0.04
-0.09538,0.92,0.04
-0.09536,0.88,0.04
-0.09534,0.84,0.04
-0.09532,0.8,0
-0.0953,0.76,0
-0.09528,0.72,0
-0.09526,0.68,0.04
-0.09524,0.56,0
-0.09522,0.56,0.04
-0.0952,0.56,0.04
-0.09518,0.44,0.04
-0.09516,0.4,0.04
-0.09514,0.32,0.04
-0.09512,0.24,0.04
-0.0951,0.24,0.04
-0.09508,0.16,0.04
-0.09506,0.08,0.04
-0.09504,0.04,0.04
-0.09502,0,0.04
-0.095,-0.08,0.04
-0.09498,-0.16,0.04
-0.09496,-0.2,0.04
-0.09494,-0.28,0.04
-0.09492,-0.32,0.04
-0.0949,-0.4,0.04
-0.09488,-0.44,0.04
-0.09486,-0.48,0.04
-0.09484,-0.56,0.04
-0.09482,-0.6,0.04
-0.0948,-0.68,0.04
-0.09478,-0.76,0.04
-0.09476,-0.8,0.04
-0.09474,-0.8,0.04
-0.09472,-0.84,0
-0.0947,-0.88,0
-0.09468,-0.88,0
-0.09466,-0.92,0.04
-0.09464,-0.96,0
-0.09462,-0.96,0
-0.0946,-1,0.04
-0.09458,-1.04,0
-0.09456,-1.04,0
-0.09454,-1.04,-0.04
-0.09452,-1.04,0
-0.0945,-1.04,0
-0.09448,-1,0
-0.09446,-1.04,0
-0.09444,-0.96,0
-0.09442,-1,0
-0.0944,-0.96,-0.04
-0.09438,-0.96,0
-0.09436,-0.88,0
-0.09434,-0.84,0
-0.09432,-0.84,0
-0.0943,-0.76,0
-0.09428,-0.72,-0.04
-0.09426,-0.68,0
-0.09424,-0.68,0
-0.09422,-0.6,-0.04
-0.0942,-0.56,0
-0.09418,-0.52,0
-0.09416,-0.44,0
-0.09414,-0.36,-0.04
-0.09412,-0.32,-0.04
-0.0941,-0.24,-0.04
-0.09408,-0.2,-0.04
-0.09406,-0.16,-0.04
-0.09404,-0.08,-0.04
-0.09402,0,0
-0.094,0.04,0
-0.09398,0.12,-0.04
-0.09396,0.16,0
-0.09394,0.24,-0.04
-0.09392,0.28,-0.04
-0.0939,0.36,-0.04
-0.09388,0.4,-0.04
-0.09386,0.48,0
-0.09384,0.56,0
-0.09382,0.56,0
-0.0938,0.64,-0.04
-0.09378,0.68,0
-0.09376,0.72,-0.04
-0.09374,0.76,-0.04
-0.09372,0.84,0
-0.0937,0.88,-0.04
-0.09368,0.88,-0.04
-0.09366,0.92,-0.04
-0.09364,0.92,0
-0.09362,0.96,0.04
-0.0936,0.96,0
-0.09358,0.96,0
-0.09356,1,0
-0.09354,1,0
-0.09352,1,0.04
-0.0935,1,0
-0.09348,1,0.04
-0.09346,0.96,0
-0.09344,0.96,0
-0.09342,0.96,0.04
-0.0934,0.92,0
-0.09338,0.88,0
-0.09336,0.88,0.04
-0.09334,0.84,0
-0.09332,0.8,0
-0.0933,0.76,0
-0.09328,0.68,0.04
-0.09326,0.68,0.04
-0.09324,0.6,0
-0.09322,0.52,0.04
-0.0932,0.52,0
-0.09318,0.48,0.04
-0.09316,0.44,0.04
-0.09314,0.36,0.08
-0.09312,0.28,0.04
-0.0931,0.2,0.04
-0.09308,0.16,0.04
-0.09306,0.08,0.04
-0.09304,0.04,0.04
-0.09302,0,0.08
-0.093,-0.08,0.04
-0.09298,-0.16,0.04
-0.09296,-0.2,0.04
-0.09294,-0.28,0.04
-0.09292,-0.36,0.04
-0.0929,-0.4,0.04
-0.09288,-0.48,0.04
-0.09286,-0.52,0.04
-0.09284,-0.56,0.04
-0.09282,-0.6,0.04
-0.0928,-0.68,0.04
-0.09278,-0.68,0.08
-0.09276,-0.76,0
-0.09274,-0.84,0.04
-0.09272,-0.84,0.04
-0.0927,-0.92,0.04
-0.09268,-0.92,0.04
-0.09266,-0.92,0
-0.09264,-0.96,0
-0.09262,-0.96,0.04
-0.0926,-1,0.04
-0.09258,-1,0
-0.09256,-1,-0.04
-0.09254,-1.04,0
-0.09252,-1,-0.04
-0.0925,-1.04,0
-0.09248,-1,0
-0.09246,-1,0
-0.09244,-1,0
-0.09242,-1,0
-0.0924,-0.96,0
-0.09238,-0.92,0
-0.09236,-0.88,0
-0.09234,-0.84,0
-0.09232,-0.8,0
-0.0923,-0.76,-0.04
-0.09228,-0.76,0
-0.09226,-0.68,0
-0.09224,-0.64,0
-0.09222,-0.6,0
-0.0922,-0.56,0
-0.09218,-0.52,0
-0.09216,-0.44,-0.04
-0.09214,-0.4,0
-0.09212,-0.32,-0.04
-0.0921,-0.24,-0.04
-0.09208,-0.2,0
-0.09206,-0.12,-0.04
-0.09204,-0.08,-0.04
-0.09202,-0.04,-0.04
-0.092,0.04,0
-0.09198,0.12,0
-0.09196,0.16,-0.04
-0.09194,0.24,0
-0.09192,0.32,0
-0.0919,0.36,0
-0.09188,0.44,-0.04
-0.09186,0.48,-0.04
-0.09184,0.52,-0.04
-0.09182,0.6,0
-0.0918,0.6,0
-0.09178,0.68,0
-0.09176,0.72,0
-0.09174,0.76,-0.04
-0.09172,0.8,0
-0.0917,0.84,0
-0.09168,0.84,0
-0.09166,0.92,0
-0.09164,0.92,0
-0.09162,0.96,0
-0.0916,0.96,0
-0.09158,1,0
-0.09156,1,0
-0.09154,1,0
-0.09152,1,0
-0.0915,1,0
-0.09148,0.96,0
-0.09146,1,0
-0.09144,0.96,0.04
-0.09142,0.92,0.04
-0.0914,0.92,0.04
-0.09138,0.88,0.04
-0.09136,0.84,0
-0.09134,0.8,0
-0.09132,0.8,0.04
-0.0913,0.76,0.04
-0.09128,0.72,0
-0.09126,0.68,0.04
-0.09124,0.6,0.04
-0.09122,0.6,0
-0.0912,0.52,0.04
-0.09118,0.48,0.08
-0.09116,0.4,0.04
-0.09114,0.32,0.04
-0.09112,0.28,0.04
-0.0911,0.24,0.04
-0.09108,0.16,0.04
-0.09106,0.08,0.04
-0.09104,0.04,0.04
-0.09102,0,0.04
-0.091,-0.08,0.08
-0.09098,-0.16,0
-0.09096,-0.24,0.04
-0.09094,-0.28,0
-0.09092,-0.36,0
-0.0909,-0.4,0.08
-0.09088,-0.44,0.04
-0.09086,-0.52,0.04
-0.09084,-0.56,0.04
-0.09082,-0.6,0.04
-0.0908,-0.68,0.04
-0.09078,-0.68,0.04
-0.09076,-0.76,0.04
-0.09074,-0.84,0.04
-0.09072,-0.84,0.04
-0.0907,-0.92,0.04
-0.09068,-0.88,0
-0.09066,-0.96,0
-0.09064,-0.96,0
-0.09062,-1,0
-0.0906,-1,0.04
-0.09058,-1.04,0
-0.09056,-1,0.04
-0.09054,-1.04,0.04
-0.09052,-1.04,0
-0.0905,-1.04,0
-0.09048,-1,0
-0.09046,-1,0
-0.09044,-1,-0.04
-0.09042,-1,0
-0.0904,-0.96,0
-0.09038,-0.92,-0.04
-0.09036,-0.88,0
-0.09034,-0.88,0
-0.09032,-0.84,0
-0.0903,-0.76,-0.04
-0.09028,-0.76,0
-0.09026,-0.68,0
-0.09024,-0.64,0.04
-0.09022,-0.6,-0.04
-0.0902,-0.56,-0.04
-0.09018,-0.48,-0.04
-0.09016,-0.44,-0.04
-0.09014,-0.36,-0.04
-0.09012,-0.28,-0.04
-0.0901,-0.24,0.04
-0.09008,-0.2,-0.04
-0.09006,-0.12,0
-0.09004,-0.08,0
-0.09002,0,0
-0.09,0.04,0
-0.08998,0.08,0
-0.08996,0.16,0
-0.08994,0.24,0
-0.08992,0.32,0
-0.0899,0.36,0
-0.08988,0.4,0
-0.08986,0.48,0
-0.08984,0.56,-0.04
-0.08982,0.6,-0.04
-0.0898,0.6,0
-0.08978,0.64,-0.04
-0.08976,0.72,0.04
-0.08974,0.76,0
-0.08972,0.8,0
-0.0897,0.84,-0.04
-0.08968,0.84,0
-0.08966,0.88,0
-0.08964,0.92,0
-0.08962,0.96,0
-0.0896,0.96,0
-0.08958,0.96,0
-0.08956,1,0
-0.08954,0.96,0.04
-0.08952,1,0
-0.0895,1,0
-0.08948,1.04,0
-0.08946,1,0
-0.08944,0.96,0.04
-0.08942,0.96,0.04
-0.0894,0.92,0.04
-0.08938,0.88,0.04
-0.08936,0.84,0.04
-0.08934,0.84,0.04
-0.08932,0.8,0.04
-0.0893,0.76,0
-0.08928,0.72,0
-0.08926,0.68,0.04
-0.08924,0.6,0.04
-0.08922,0.56,0.04
-0.0892,0.52,0.04
-0.08918,0.44,0.04
-0.08916,0.4,0.04
-0.08914,0.32,0.04
-0.08912,0.28,0.04
-0.0891,0.2,0.04
-0.08908,0.16,0
-0.08906,0.04,0.04
-0.08904,0.04,0.04
-0.08902,0,0.04
-0.089,-0.12,0.04
-0.08898,-0.12,0
-0.08896,-0.2,0
-0.08894,-0.28,0
-0.08892,-0.32,0.04
-0.0889,-0.44,0.04
-0.08888,-0.44,0.04
-0.08886,-0.52,0.04
-0.08884,-0.6,0.04
-0.08882,-0.6,0.04
-0.0888,-0.64,0.04
-0.08878,-0.72,0.04
-0.08876,-0.76,0.04
-0.08874,-0.76,0.04
-0.08872,-0.84,0.04
-0.0887,-0.88,0.08
-0.08868,-0.88,0.04
-0.08866,-0.92,0.04
-0.08864,-0.96,0
-0.08862,-1,0
-0.0886,-1,0
-0.08858,-1.04,0
-0.08856,-1,0.04
-0.08854,-1.04,0.04
-0.08852,-1.04,-0.04
-0.0885,-1.04,0
-0.08848,-1.04,0
-0.08846,-0.96,-0.04
-0.08844,-1.04,0
-0.08842,-0.96,0
-0.0884,-0.96,0.04
-0.08838,-0.92,0
-0.08836,-0.92,0
-0.08834,-0.88,-0.04
-0.08832,-0.84,0
-0.0883,-0.76,0
-0.08828,-0.76,0
-0.08826,-0.72,0
-0.08824,-0.64,-0.04
-0.08822,-0.6,0
-0.0882,-0.56,-0.04
-0.08818,-0.48,0
-0.08816,-0.4,0
-0.08814,-0.4,-0.04
-0.08812,-0.36,0
-0.0881,-0.28,0
-0.08808,-0.16,-0.04
-0.08806,-0.12,-0.04
-0.08804,-0.08,0
-0.08802,0,-0.04
-0.088,0.04,-0.04
-0.08798,0.12,-0.04
-0.08796,0.2,-0.04
-0.08794,0.24,0
-0.08792,0.28,0
-0.0879,0.36,-0.04
-0.08788,0.4,0
-0.08786,0.44,-0.04
-0.08784,0.52,-0.04
-0.08782,0.56,0
-0.0878,0.64,-0.04
-0.08778,0.68,-0.04
-0.08776,0.72,0
-0.08774,0.76,-0.04
-0.08772,0.8,0
-0.0877,0.84,0
-0.08768,0.88,-0.04
-0.08766,0.88,0
-0.08764,0.92,0
-0.08762,0.96,0
-0.0876,0.96,0
-0.08758,0.96,0
-0.08756,1,0.04
-0.08754,1,0
-0.08752,0.96,0.04
-0.0875,0.96,0
-0.08748,1,0
-0.08746,0.96,0
-0.08744,0.96,0
-0.08742,0.96,0.04
-0.0874,0.92,0
-0.08738,0.88,0
-0.08736,0.84,0.04
-0.08734,0.84,0
-0.08732,0.8,0.04
-0.0873,0.72,0.04
-0.08728,0.72,0
-0.08726,0.68,0.04
-0.08724,0.6,0.04
-0.08722,0.6,0.04
-0.0872,0.56,0.04
-0.08718,0.44,0.08
-0.08716,0.4,0.08
-0.08714,0.4,0.04
-0.08712,0.28,0.04
-0.0871,0.2,0.04
-0.08708,0.16,0.04
-0.08706,0.08,0.04
-0.08704,0.04,0.04
-0.08702,0,0.04
-0.087,-0.08,0.04
-0.08698,-0.16,0.04
-0.08696,-0.2,0
-0.08694,-0.28,0.04
-0.08692,-0.32,0.04
-0.0869,-0.4,0.04
-0.08688,-0.48,0.04
-0.08686,-0.56,0.04
-0.08684,-0.56,0.04
-0.08682,-0.64,0
-0.0868,-0.68,0
-0.08678,-0.68,0.04
-0.08676,-0.8,0
-0.08674,-0.8,0
-0.08672,-0.84,0.04
-0.0867,-0.88,0
-0.08668,-0.88,0
-0.08666,-0.92,0
-0.08664,-0.96,0.04
-0.08662,-0.96,0
-0.0866,-1,0
-0.08658,-1.04,0
-0.08656,-1,0
-0.08654,-1,0
-0.08652,-1.04,0
-0.0865,-1.04,0
-0.08648,-1.04,0
-0.08646,-1,0
-0.08644,-0.96,0
-0.08642,-1,0
-0.0864,-0.96,0
-0.08638,-0.92,0
-0.08636,-0.92,-0.04
-0.08634,-0.88,0
-0.08632,-0.84,0
-0.0863,-0.8,0
-0.08628,-0.72,-0.04
-0.08626,-0.72,0
-0.08624,-0.64,-0.04
-0.08622,-0.6,-0.04
-0.0862,-0.56,-0.04
-0.08618,-0.48,0
-0.08616,-0.4,0
-0.08614,-0.36,-0.04
-0.08612,-0.32,-0.04
-0.0861,-0.28,0
-0.08608,-0.2,-0.04
-0.08606,-0.16,-0.04
-0.08604,-0.08,-0.04
-0.08602,-0.04,-0.04
-0.086,0.04,-0.04
-0.08598,0.08,0
-0.08596,0.16,0
-0.08594,0.24,-0.04
-0.08592,0.32,-0.04
-0.0859,0.32,0
-0.08588,0.4,0
-0.08586,0.44,-0.04
-0.08584,0.56,0
-0.08582,0.56,-0.04
-0.0858,0.64,0
-0.08578,0.68,-0.04
-0.08576,0.72,0
-0.08574,0.76,-0.04
-0.08572,0.8,-0.04
-0.0857,0.84,0
-0.08568,0.88,-0.04
-0.08566,0.88,0
-0.08564,0.92,0
-0.08562,0.96,0
-0.0856,1,0
-0.08558,0.96,0.04
-0.08556,1,0.04
-0.08554,0.96,0
-0.08552,1,0
-0.0855,0.96,0
-0.08548,0.96,0
-0.08546,0.92,0
-0.08544,0.96,0
-0.08542,0.96,0.04
-0.0854,0.92,0
-0.08538,0.88,0.04
-0.08536,0.88,0.04
-0.08534,0.84,0.04
-0.08532,0.8,0.04
-0.0853,0.76,0
-0.08528,0.72,0
-0.08526,0.68,0.04
-0.08524,0.6,0.08
-0.08522,0.56,0.04
-0.0852,0.48,0.04
-0.08518,0.44,0.04
-0.08516,0.4,0.04
-0.08514,0.36,0.04
-0.08512,0.28,0.08
-0.0851,0.24,0.08
-0.08508,0.12,0
-0.08506,0.12,0.04
-0.08504,0.04,0
-0.08502,0,0.04
-0.085,-0.12,0.04
-0.08498,-0.16,0.04
-0.08496,-0.2,0.04
-0.08494,-0.28,0.04
-0.08492,-0.32,0.04
-0.0849,-0.4,0.04
-0.08488,-0.48,0.04
-0.08486,-0.52,0.04
-0.08484,-0.56,0.04
-0.08482,-0.6,0.08
-0.0848,-0.64,0
-0.08478,-0.72,0
-0.08476,-0.76,0.04
-0.08474,-0.76,0.04
-0.08472,-0.84,0
-0.0847,-0.84,0.04
-0.08468,-0.88,0
-0.08466,-0.92,0
-0.08464,-0.96,0
-0.08462,-1,0
-0.0846,-1,0
-0.08458,-1.04,0
-0.08456,-1,0
-0.08454,-1.04,0
-0.08452,-1.04,0
-0.0845,-1.04,0
-0.08448,-1,0
-0.08446,-1,0
-0.08444,-0.96,0
-0.08442,-0.96,0
-0.0844,-0.96,0.04
-0.08438,-0.92,-0.04
-0.08436,-0.92,0
-0.08434,-0.84,0
-0.08432,-0.8,-0.04
-0.0843,-0.76,-0.04
-0.08428,-0.72,0
-0.08426,-0.72,0
-0.08424,-0.68,-0.04
-0.08422,-0.64,0
-0.0842,-0.6,0
-0.08418,-0.48,-0.04
-0.08416,-0.44,-0.04
-0.08414,-0.4,-0.04
-0.08412,-0.32,0
-0.0841,-0.28,-0.04
-0.08408,-0.2,-0.08
-0.08406,-0.12,0
-0.08404,-0.04,-0.04
-0.08402,0,-0.04
-0.084,0.04,0
-0.08398,0.12,0
-0.08396,0.2,-0.04
-0.08394,0.2,-0.04
-0.08392,0.28,-0.04
-0.0839,0.36,0
-0.08388,0.44,-0.04
-0.08386,0.48,0
-0.08384,0.56,0
-0.08382,0.56,0
-0.0838,0.64,0
-0.08378,0.68,0
-0.08376,0.68,-0.04
-0.08374,0.76,0
-0.08372,0.76,-0.04
-0.0837,0.8,-0.04
-0.08368,0.88,-0.04
-0.08366,0.88,0
-0.08364,0.92,0.04
-0.08362,0.96,0
-0.0836,1,0
-0.08358,0.96,0
-0.08356,0.96,0
-0.08354,0.96,0
-0.08352,1,0
-0.0835,0.96,0
-0.08348,1,0.04
-0.08346,0.96,0.04
-0.08344,0.96,0.04
-0.08342,0.96,0
-0.0834,0.92,0.04
-0.08338,0.92,-0.04
-0.08336,0.92,0.04
-0.08334,0.8,0.04
-0.08332,0.8,0
-0.0833,0.76,0.04
-0.08328,0.68,0.04
-0.08326,0.68,0.04
-0.08324,0.64,0.04
-0.08322,0.56,0.04
-0.0832,0.52,0.04
-0.08318,0.44,0.04
-0.08316,0.4,0
-0.08314,0.36,0.04
-0.08312,0.28,0.04
-0.0831,0.2,0.04
-0.08308,0.12,0.04
-0.08306,0.08,0.04
-0.08304,0.04,0.04
-0.08302,-0.04,0.08
-0.083,-0.08,0.04
-0.08298,-0.16,0.04
-0.08296,-0.2,0.04
-0.08294,-0.24,0.04
-0.08292,-0.32,0
-0.0829,-0.36,0.04
-0.08288,-0.48,0.08
-0.08286,-0.48,0
-0.08284,-0.56,0.04
-0.08282,-0.6,0.08
-0.0828,-0.68,0.08
-0.08278,-0.68,0.08
-0.08276,-0.76,0
-0.08274,-0.76,0.04
-0.08272,-0.88,0
-0.0827,-0.88,0.04
-0.08268,-0.92,0.04
-0.08266,-0.96,0.04
-0.08264,-0.96,0
-0.08262,-0.96,0
-0.0826,-1,0.04
-0.08258,-1,0
-0.08256,-1.04,0
-0.08254,-1,0
-0.08252,-1,0
-0.0825,-1,0
-0.08248,-1,0
-0.08246,-1,0
-0.08244,-1,-0.04
-0.08242,-0.96,0
-0.0824,-0.96,-0.04
-0.08238,-0.92,0
-0.08236,-0.92,0
-0.08234,-0.88,-0.04
-0.08232,-0.84,-0.04
-0.0823,-0.76,-0.04
-0.08228,-0.76,-0.04
-0.08226,-0.68,-0.04
-0.08224,-0.64,-0.04
-0.08222,-0.6,-0.04
-0.0822,-0.52,-0.04
-0.08218,-0.48,0
-0.08216,-0.44,-0.04
-0.08214,-0.4,-0.04
-0.08212,-0.32,-0.04
-0.0821,-0.24,-0.04
-0.08208,-0.2,0
-0.08206,-0.12,0
-0.08204,-0.08,-0.04
-0.08202,0,-0.04
-0.082,0.04,-0.04
-0.08198,0.12,0
-0.08196,0.12,-0.04
-0.08194,0.24,-0.04
-0.08192,0.28,-0.04
-0.0819,0.36,-0.04
-0.08188,0.44,-0.04
-0.08186,0.44,0
-0.08184,0.56,-0.04
-0.08182,0.6,0
-0.0818,0.64,0
-0.08178,0.68,-0.04
-0.08176,0.72,0
-0.08174,0.76,0
-0.08172,0.8,-0.04
-0.0817,0.84,-0.04
-0.08168,0.84,0
-0.08166,0.88,0
-0.08164,0.92,0
-0.08162,0.96,0
-0.0816,0.96,0.04
-0.08158,0.96,0
-0.08156,0.96,0
-0.08154,1,0
-0.08152,1,0
-0.0815,0.96,0
-0.08148,1,0.04
-0.08146,1,0
-0.08144,0.96,0
-0.08142,0.92,0
-0.0814,0.92,0.04
-0.08138,0.88,0
-0.08136,0.84,0
-0.08134,0.84,0.04
-0.08132,0.8,0.04
-0.0813,0.76,0.04
-0.08128,0.72,0.04
-0.08126,0.68,0.04
-0.08124,0.64,0.04
-0.08122,0.56,0.04
-0.0812,0.52,0.04
-0.08118,0.44,0.04
-0.08116,0.36,0.04
-0.08114,0.32,0
-0.08112,0.32,0
-0.0811,0.2,0.04
-0.08108,0.16,0.04
-0.08106,0.08,0.04
-0.08104,0.04,0.04
-0.08102,0,0.08
-0.081,-0.08,0.04
-0.08098,-0.12,0.04
-0.08096,-0.2,0.04
-0.08094,-0.28,0
-0.08092,-0.32,0.04
-0.0809,-0.36,0.04
-0.08088,-0.48,0
-0.08086,-0.52,0
-0.08084,-0.56,0
-0.08082,-0.6,0.04
-0.0808,-0.6,0
-0.08078,-0.72,0.04
-0.08076,-0.76,0.04
-0.08074,-0.84,0.04
-0.08072,-0.84,0.04
-0.0807,-0.88,0.04
-0.08068,-0.92,0.04
-0.08066,-0.92,0
-0.08064,-0.96,0.04
-0.08062,-1,0
-0.0806,-1,0.04
-0.08058,-1.04,0.04
-0.08056,-1,-0.04
-0.08054,-1.04,0
-0.08052,-1.04,0
-0.0805,-1.04,0
-0.08048,-1.04,0
-0.08046,-1,0
-0.08044,-1,0
-0.08042,-1,0
-0.0804,-0.96,0
-0.08038,-0.92,-0.04
-0.08036,-0.88,0
-0.08034,-0.88,-0.04
-0.08032,-0.8,0
-0.0803,-0.76,0
-0.08028,-0.76,0
-0.08026,-0.68,0
-0.08024,-0.64,0
-0.08022,-0.6,0
-0.0802,-0.56,-0.04
-0.08018,-0.48,-0.04
-0.08016,-0.44,-0.04
-0.08014,-0.36,-0.04
-0.08012,-0.32,-0.04
-0.0801,-0.28,-0.04
-0.08008,-0.16,-0.04
-0.08006,-0.16,0
-0.08004,-0.08,0
-0.08002,0,-0.04
-0.08,0.04,0
-0.07998,0.12,0
-0.07996,0.16,0
-0.07994,0.24,-0.04
-0.07992,0.28,0
-0.0799,0.32,0
-0.07988,0.4,-0.04
-0.07986,0.44,0
-0.07984,0.52,-0.04
-0.07982,0.6,0
-0.0798,0.64,0
-0.07978,0.64,0
-0.07976,0.72,0
-0.07974,0.76,0
-0.07972,0.8,-0.04
-0.0797,0.84,0
-0.07968,0.84,0
-0.07966,0.88,0
-0.07964,0.88,0
-0.07962,0.96,0
-0.0796,0.96,0.04
-0.07958,0.96,0
-0.07956,0.96,0
-0.07954,1,0
-0.07952,1,0
-0.0795,1,0
-0.07948,1,0.04
-0.07946,0.92,0
-0.07944,0.96,0
-0.07942,0.92,0.04
-0.0794,0.96,0.04
-0.07938,0.92,0.04
-0.07936,0.88,0.04
-0.07934,0.84,0.04
-0.07932,0.84,0.04
-0.0793,0.72,0.04
-0.07928,0.72,0.04
-0.07926,0.68,0.04
-0.07924,0.64,0.04
-0.07922,0.56,0.04
-0.0792,0.52,0.04
-0.07918,0.48,0.08
-0.07916,0.4,0
-0.07914,0.32,0.04
-0.07912,0.28,0.08
-0.0791,0.24,0.04
-0.07908,0.12,0.04
-0.07906,0.08,0.04
-0.07904,0.04,0.08
-0.07902,-0.04,0.04
-0.079,-0.12,0
-0.07898,-0.12,0.04
-0.07896,-0.24,0.04
-0.07894,-0.28,0.04
-0.07892,-0.32,0
-0.0789,-0.4,0
-0.07888,-0.48,0.04
-0.07886,-0.52,0
-0.07884,-0.56,0.04
-0.07882,-0.6,0.04
-0.0788,-0.68,0
-0.07878,-0.72,0.04
-0.07876,-0.76,0.04
-0.07874,-0.8,0.04
-0.07872,-0.84,0
-0.0787,-0.84,0.04
-0.07868,-0.92,0.04
-0.07866,-0.96,0
-0.07864,-0.96,0
-0.07862,-1,0
-0.0786,-1,0
-0.07858,-1,0.04
-0.07856,-1.04,0.04
-0.07854,-1,0
-0.07852,-1.04,0
-0.0785,-1,0
-0.07848,-1,0
-0.07846,-1.04,0.04
-0.07844,-1,0
-0.07842,-0.96,0
-0.0784,-0.96,0
-0.07838,-0.92,0
-0.07836,-0.92,0.04
-0.07834,-0.88,-0.04
-0.07832,-0.84,-0.04
-0.0783,-0.8,0
-0.07828,-0.72,-0.04
-0.07826,-0.72,0
-0.07824,-0.68,-0.04
-0.07822,-0.6,0
-0.0782,-0.56,0
-0.07818,-0.48,0
-0.07816,-0.48,-0.04
-0.07814,-0.4,0
-0.07812,-0.32,-0.04
-0.0781,-0.24,0
-0.07808,-0.24,-0.04
-0.07806,-0.16,0
-0.07804,-0.04,-0.04
-0.07802,0,-0.08
-0.078,0.04,-0.04
-0.07798,0.12,-0.04
-0.07796,0.16,-0.04
-0.07794,0.24,0
-0.07792,0.32,0
-0.0779,0.36,0
-0.07788,0.4,0
-0.07786,0.48,-0.04
-0.07784,0.52,0
-0.07782,0.56,0
-0.0778,0.64,0
-0.07778,0.64,0
