lab3/data/task1_sin_420.csv

Model,MDO34,
Firmware Version,CF:91.1CT FV:v1.6.0,
,,
Waveform Type,ANALOG,ANALOG
Point Format,Y,Y
Horizontal Units,"s","s"
Horizontal Scale,0.02,0.02
Horizontal Delay,0,0
Sample Interval,2E-05,2E-05
Record Length,10000,10000
Gating,0.0% to 100.0%,0.0% to 100.0%
Probe Attenuation,1X,1X
Vertical Units,"V","V"
Vertical Offset,30,-50
Vertical Scale,1,1
Vertical Position,1.2,-2
,,
,,
,,
Label,"",""
TIME,CH1,CH2
-0.1,0,-0.04
-0.09998,0.04,-0.04
-0.09996,0.08,-0.04
-0.09994,0.12,-0.04
-0.09992,0.2,-0.04
-0.0999,0.24,-0.04
-0.09988,0.28,-0.04
-0.09986,0.36,-0.04
-0.09984,0.4,-0.04
-0.09982,0.48,-0.04
-0.0998,0.52,0
-0.09978,0.56,-0.04
-0.09976,0.6,-0.04
-0.09974,0.64,-0.04
-0.09972,0.68,-0.04
-0.0997,0.72,0
-0.09968,0.72,-0.04
-0.09966,0.8,-0.04
-0.09964,0.8,0
-0.09962,0.84,-0.04
-0.0996,0.84,-0.04
-0.09958,0.92,0.04
-0.09956,0.92,0
-0.09954,0.92,-0.04
-0.09952,0.96,0
-0.0995,0.96,0
-0.09948,1,0
-0.09946,0.96,0
-0.09944,1,0
-0.09942,1,-0.04
-0.0994,0.96,0
-0.09938,1,0.04
-0.09936,1,0
-0.09934,0.96,0
-0.09932,0.96,0
-0.0993,0.96,0
-0.09928,0.92,0
-0.09926,0.92,0.04
-0.09924,0.88,0.04
-0.09922,0.88,0.04
-0.0992,0.84,0.04
-0.09918,0.8,0
-0.09916,0.8,0.04
-0.09914,0.76,0
-0.09912,0.72,0.04
-0.0991,0.64,0.04
-0.09908,0.6,0.04
-0.09906,0.6,0.04
-0.09904,0.56,0
-0.09902,0.52,0
-0.099,0.48,0.04
-0.09898,0.4,0.04
-0.09896,0.36,0.08
-0.09894,0.28,0.04
-0.09892,0.24,0.04
-0.0989,0.2,0.04
-0.09888,0.16,0.04
-0.09886,0.12,0.04
-0.09884,0.04,0.04
-0.09882,-0.04,0.08
-0.0988,-0.04,0.04
-0.09878,-0.12,0
-0.09876,-0.16,0
-0.09874,-0.24,0.04
-0.09872,-0.24,0.08
-0.0987,-0.32,0.04
-0.09868,-0.4,0.04
-0.09866,-0.44,0.08
-0.09864,-0.48,0.04
-0.09862,-0.52,0.04
-0.0986,-0.56,0.08
-0.09858,-0.64,0.08
-0.09856,-0.6,0.04
-0.09854,-0.68,0.04
-0.09852,-0.72,0.04
-0.0985,-0.76,0.04
-0.09848,-0.8,0.04
-0.09846,-0.84,0
-0.09844,-0.84,0
-0.09842,-0.92,0.04
-0.0984,-0.92,0.04
-0.09838,-0.92,0.04
-0.09836,-0.96,0.04
-0.09834,-1.04,0.04
-0.09832,-1,0
-0.0983,-1.04,0
-0.09828,-1,0.04
-0.09826,-1,0.04
-0.09824,-1,0
-0.09822,-1,0
-0.0982,-1.04,0
-0.09818,-1.04,0
-0.09816,-1.04,0
-0.09814,-1,0
-0.09812,-1,0
-0.0981,-1,-0.04
-0.09808,-0.96,0
-0.09806,-0.96,0
-0.09804,-0.92,0
-0.09802,-0.88,-0.04
-0.098,-0.88,-0.04
-0.09798,-0.84,-0.04
-0.09796,-0.8,0
-0.09794,-0.76,-0.04
-0.09792,-0.72,-0.04
-0.0979,-0.68,-0.04
-0.09788,-0.64,-0.04
-0.09786,-0.6,-0.04
-0.09784,-0.6,0
-0.09782,-0.52,0
-0.0978,-0.48,0
-0.09778,-0.44,0
-0.09776,-0.4,-0.04
-0.09774,-0.32,0
-0.09772,-0.24,-0.04
-0.0977,-0.2,0
-0.09768,-0.16,-0.04
-0.09766,-0.08,-0.04
-0.09764,-0.04,-0.04
-0.09762,0,-0.04
-0.0976,0.04,0
-0.09758,0.08,-0.04
-0.09756,0.16,-0.04
-0.09754,0.2,-0.04
-0.09752,0.24,0
-0.0975,0.28,0
-0.09748,0.32,-0.04
-0.09746,0.4,-0.04
-0.09744,0.48,-0.04
-0.09742,0.48,-0.04
-0.0974,0.52,0
-0.09738,0.6,-0.04
-0.09736,0.64,-0.04
-0.09734,0.68,0
-0.09732,0.72,0
-0.0973,0.76,0
-0.09728,0.8,-0.04
-0.09726,0.84,0
-0.09724,0.88,0
-0.09722,0.88,0
-0.0972,0.92,-0.04
-0.09718,0.88,-0.04
-0.09716,0.92,0
-0.09714,0.96,0
-0.09712,0.96,0
-0.0971,0.96,0.04
-0.09708,1,0
-0.09706,0.96,0
-0.09704,0.96,0
-0.09702,1,0.04
-0.097,1,0.04
-0.09698,1,0
-0.09696,0.96,0.04
-0.09694,0.96,0
-0.09692,0.96,0
-0.0969,0.96,0
-0.09688,0.96,0.04
-0.09686,0.88,0
-0.09684,0.84,0
-0.09682,0.84,0.04
-0.0968,0.8,0.04
-0.09678,0.76,0
-0.09676,0.76,0
-0.09674,0.72,0.04
-0.09672,0.68,0.04
-0.0967,0.64,0.04
-0.09668,0.6,0
-0.09666,0.56,0.04
-0.09664,0.52,0.04
-0.09662,0.44,0
-0.0966,0.4,0.04
-0.09658,0.36,0.08
-0.09656,0.32,0.04
-0.09654,0.28,0.04
-0.09652,0.2,0.04
-0.0965,0.16,0.04
-0.09648,0.08,0.04
-0.09646,0.04,0.08
-0.09644,0,0.08
-0.09642,-0.04,0.04
-0.0964,-0.12,0.04
-0.09638,-0.16,0.04
-0.09636,-0.2,0.04
-0.09634,-0.24,0.04
-0.09632,-0.32,0.04
-0.0963,-0.36,0.04
-0.09628,-0.44,0
-0.09626,-0.44,0.04
-0.09624,-0.52,0.04
-0.09622,-0.56,0.04
-0.0962,-0.6,0
-0.09618,-0.6,0.04
-0.09616,-0.68,0.04
-0.09614,-0.72,0.04
-0.09612,-0.76,0.04
-0.0961,-0.8,0.04
-0.09608,-0.84,0
-0.09606,-0.88,0.04
-0.09604,-0.88,0
-0.09602,-0.92,0.04
-0.096,-0.92,0
-0.09598,-0.96,0
-0.09596,-0.96,0.04
-0.09594,-1,0
-0.09592,-1,0.04
-0.0959,-1,0
-0.09588,-1,0
-0.09586,-1.04,0
-0.09584,-1.04,0
-0.09582,-1.04,0
-0.0958,-1,0
-0.09578,-1,0
-0.09576,-1,0
-0.09574,-0.96,0
-0.09572,-0.96,-0.04
-0.0957,-0.96,-0.04
-0.09568,-0.92,-0.04
-0.09566,-0.96,0
-0.09564,-0.88,-0.04
-0.09562,-0.88,0
-0.0956,-0.88,0
-0.09558,-0.84,0
-0.09556,-0.76,-0.04
-0.09554,-0.72,0
-0.09552,-0.72,0
-0.0955,-0.68,0
-0.09548,-0.6,-0.04
-0.09546,-0.56,0
-0.09544,-0.48,-0.04
-0.09542,-0.48,-0.04
-0.0954,-0.4,-0.04
-0.09538,-0.36,-0.04
-0.09536,-0.32,-0.04
-0.09534,-0.28,0
-0.09532,-0.2,-0.04
-0.0953,-0.2,-0.04
-0.09528,-0.16,-0.04
-0.09526,-0.08,-0.04
-0.09524,-0.04,-0.04
-0.09522,0.08,-0.04
-0.0952,0.08,-0.04
-0.09518,0.12,-0.04
-0.09516,0.2,0
-0.09514,0.24,-0.04
-0.09512,0.28,-0.08
-0.0951,0.32,-0.04
-0.09508,0.36,0
-0.09506,0.44,-0.04
-0.09504,0.48,-0.04
-0.09502,0.52,-0.08
-0.095,0.6,0
-0.09498,0.6,-0.04
-0.09496,0.64,-0.04
-0.09494,0.72,0
-0.09492,0.72,0
-0.0949,0.76,0
-0.09488,0.8,0
-0.09486,0.84,0
-0.09484,0.84,0.04
-0.09482,0.92,-0.04
-0.0948,0.92,0
-0.09478,0.96,0
-0.09476,0.96,0
-0.09474,0.96,0
-0.09472,0.96,0
-0.0947,0.96,0
-0.09468,0.96,0.04
-0.09466,1,0
-0.09464,1,0.04
-0.09462,1,0.04
-0.0946,1,0
-0.09458,0.96,0
-0.09456,1,0.04
-0.09454,0.96,0.04
-0.09452,0.96,0
-0.0945,0.92,0.04
-0.09448,0.92,0.04
-0.09446,0.88,0.04
-0.09444,0.84,0.04
-0.09442,0.8,0.04
-0.0944,0.8,0.04
-0.09438,0.72,0.04
-0.09436,0.72,0.04
-0.09434,0.68,0.04
-0.09432,0.64,0.04
-0.0943,0.56,0.04
-0.09428,0.56,0.04
-0.09426,0.48,0.04
-0.09424,0.44,0.04
-0.09422,0.44,0.04
-0.0942,0.36,0.04
-0.09418,0.36,0.04
-0.09416,0.24,0.04
-0.09414,0.2,0.04
-0.09412,0.12,0.04
-0.0941,0.08,0.08
-0.09408,0.04,0.04
-0.09406,0,0.04
-0.09404,-0.04,0.04
-0.09402,-0.12,0.08
-0.094,-0.16,0.08
-0.09398,-0.2,0.08
-0.09396,-0.28,0.04
-0.09394,-0.32,0.04
-0.09392,-0.36,0.04
-0.0939,-0.4,0
-0.09388,-0.44,0.04
-0.09386,-0.52,0.04
-0.09384,-0.56,0
-0.09382,-0.6,0.04
-0.0938,-0.64,0.04
-0.09378,-0.72,0.04
-0.09376,-0.72,0.04
-0.09374,-0.76,0
-0.09372,-0.8,0.04
-0.0937,-0.84,0.04
-0.09368,-0.88,0.04
-0.09366,-0.88,0.04
-0.09364,-0.92,0.08
-0.09362,-0.92,0.04
-0.0936,-0.96,0.04
-0.09358,-0.96,0
-0.09356,-1,0.04
-0.09354,-1.04,0.04
-0.09352,-1,0
-0.0935,-1,0
-0.09348,-1.04,0
-0.09346,-1,0
-0.09344,-1.04,0.04
-0.09342,-1,0
-0.0934,-1,0
-0.09338,-1,0
-0.09336,-1,0.04
-0.09334,-1,-0.04
-0.09332,-0.96,0
-0.0933,-0.96,0
-0.09328,-0.92,0
-0.09326,-0.92,0
-0.09324,-0.88,0
-0.09322,-0.88,0
-0.0932,-0.8,-0.04
-0.09318,-0.76,-0.04
-0.09316,-0.76,-0.04
-0.09314,-0.68,-0.04
-0.09312,-0.64,0
-0.0931,-0.6,-0.04
-0.09308,-0.6,0
-0.09306,-0.52,-0.04
-0.09304,-0.48,0
-0.09302,-0.44,-0.04
-0.093,-0.36,0
-0.09298,-0.32,0
-0.09296,-0.28,-0.04
-0.09294,-0.2,-0.04
-0.09292,-0.16,0
-0.0929,-0.12,-0.04
-0.09288,-0.04,-0.04
-0.09286,0,-0.08
-0.09284,0.04,-0.04
-0.09282,0.08,-0.04
-0.0928,0.16,-0.08
-0.09278,0.2,-0.04
-0.09276,0.24,0
-0.09274,0.32,-0.04
-0.09272,0.36,0
-0.0927,0.36,0
-0.09268,0.44,-0.04
-0.09266,0.48,-0.04
-0.09264,0.56,-0.04
-0.09262,0.6,0
-0.0926,0.64,0
-0.09258,0.64,-0.04
-0.09256,0.72,0
-0.09254,0.76,0
-0.09252,0.8,-0.04
-0.0925,0.8,0
-0.09248,0.84,0
-0.09246,0.88,-0.04
-0.09244,0.92,0
-0.09242,0.92,-0.04
-0.0924,0.92,0
-0.09238,0.96,0.04
-0.09236,0.96,0
-0.09234,0.96,0
-0.09232,1,0
-0.0923,0.96,0
-0.09228,1,0.04
-0.09226,1,0
-0.09224,1,0
-0.09222,1,0
-0.0922,0.96,0
-0.09218,0.96,0.04
-0.09216,0.96,0.04
-0.09214,0.92,0.04
-0.09212,0.92,0.04
-0.0921,0.88,0.04
-0.09208,0.88,0.04
-0.09206,0.84,0.04
-0.09204,0.8,0.04
-0.09202,0.8,0
-0.092,0.72,0
-0.09198,0.72,0.04
-0.09196,0.68,0.04
-0.09194,0.64,0.04
-0.09192,0.6,0.04
-0.0919,0.56,0.04
-0.09188,0.48,0.04
-0.09186,0.48,0.04
-0.09184,0.44,0.04
-0.09182,0.36,0.04
-0.0918,0.28,0.04
-0.09178,0.28,0.08
-0.09176,0.2,0.04
-0.09174,0.16,0.04
-0.09172,0.12,0.04
-0.0917,0.04,0.04
-0.09168,0,0.04
-0.09166,-0.04,0.04
-0.09164,-0.12,0.12
-0.09162,-0.16,0.08
-0.0916,-0.2,0.04
-0.09158,-0.24,0.04
-0.09156,-0.32,0.08
-0.09154,-0.32,0.08
-0.09152,-0.4,0.04
-0.0915,-0.48,0.04
-0.09148,-0.52,0.04
-0.09146,-0.56,0.04
-0.09144,-0.6,0.04
-0.09142,-0.64,0.04
-0.0914,-0.68,0.04
-0.09138,-0.72,0.04
-0.09136,-0.76,0.04
-0.09134,-0.8,0.04
-0.09132,-0.84,0
-0.0913,-0.84,0.04
-0.09128,-0.88,0.04
-0.09126,-0.88,0.04
-0.09124,-0.92,0.04
-0.09122,-1,0.04
-0.0912,-0.96,0.04
-0.09118,-1,0
-0.09116,-1,0
-0.09114,-1,0
-0.09112,-1.04,0.04
-0.0911,-1.04,0
-0.09108,-1,0
-0.09106,-1,0.04
-0.09104,-1.04,0
-0.09102,-1.04,0
-0.091,-0.96,0
-0.09098,-1,0
-0.09096,-1,0
-0.09094,-0.96,0
-0.09092,-0.96,-0.04
-0.0909,-0.92,0
-0.09088,-0.92,0.04
-0.09086,-0.92,-0.04
-0.09084,-0.8,0
-0.09082,-0.84,-0.04
-0.0908,-0.76,0
-0.09078,-0.72,0
-0.09076,-0.72,-0.04
-0.09074,-0.64,0
-0.09072,-0.6,0
-0.0907,-0.56,-0.04
-0.09068,-0.52,-0.04
-0.09066,-0.48,0
-0.09064,-0.4,-0.04
-0.09062,-0.36,-0.04
-0.0906,-0.32,-0.04
-0.09058,-0.28,0
-0.09056,-0.2,-0.04
-0.09054,-0.2,-0.04
-0.09052,-0.12,-0.04
-0.0905,-0.08,-0.04
-0.09048,0,-0.04
-0.09046,0.04,-0.04
-0.09044,0.08,-0.04
-0.09042,0.16,-0.04
-0.0904,0.2,-0.04
-0.09038,0.28,0
-0.09036,0.28,-0.04
-0.09034,0.36,-0.04
-0.09032,0.44,0
-0.0903,0.44,-0.04
-0.09028,0.48,0
-0.09026,0.56,-0.04
-0.09024,0.6,-0.04
-0.09022,0.64,-0.04
-0.0902,0.68,-0.04
-0.09018,0.72,-0.04
-0.09016,0.72,-0.04
-0.09014,0.76,0
-0.09012,0.8,-0.04
-0.0901,0.84,0
-0.09008,0.84,-0.04
-0.09006,0.88,0
-0.09004,0.92,0
-0.09002,0.92,-0.04
-0.09,0.96,0
-0.08998,0.96,0
-0.08996,1,0
-0.08994,0.96,0
-0.08992,1,0
-0.0899,1,0
-0.08988,0.96,0
-0.08986,1,0
-0.08984,0.96,0.04
-0.08982,0.96,0
-0.0898,0.96,0.04
-0.08978,0.92,0.04
-0.08976,0.92,0
-0.08974,0.96,0
-0.08972,0.92,0.04
-0.0897,0.84,0.04
-0.08968,0.84,0.04
-0.08966,0.8,0
-0.08964,0.76,0.04
-0.08962,0.76,0.04
-0.0896,0.72,0.04
-0.08958,0.68,0.04
-0.08956,0.64,0
-0.08954,0.6,0.04
-0.08952,0.56,0.04
-0.0895,0.52,0.04
-0.08948,0.48,0.08
-0.08946,0.4,0.04
-0.08944,0.36,0.04
-0.08942,0.32,0
-0.0894,0.28,0.04
-0.08938,0.2,0.04
-0.08936,0.16,0.04
-0.08934,0.12,0.08
-0.08932,0.04,0.08
-0.0893,0,0.04
-0.08928,-0.08,0.04
-0.08926,-0.12,0.04
-0.08924,-0.12,0.04
-0.08922,-0.2,0.04
-0.0892,-0.24,0.04
-0.08918,-0.28,0.04
-0.08916,-0.32,0.04
-0.08914,-0.4,0.04
-0.08912,-0.48,0.04
-0.0891,-0.52,0.04
-0.08908,-0.56,0.04
-0.08906,-0.56,0.04
-0.08904,-0.64,0.04
-0.08902,-0.68,0.04
-0.089,-0.72,0.04
-0.08898,-0.76,0.04
-0.08896,-0.8,0.04
-0.08894,-0.84,0.04
-0.08892,-0.88,0.04
-0.0889,-0.88,0
-0.08888,-0.96,0.04
-0.08886,-0.92,-0.04
-0.08884,-0.96,0.04
-0.08882,-0.96,0.04
-0.0888,-1,0.04
-0.08878,-0.96,0
-0.08876,-1.04,0.04
-0.08874,-1,0
-0.08872,-1.04,0
-0.0887,-1.04,0
-0.08868,-1.08,0
-0.08866,-1.04,0
-0.08864,-1,0
-0.08862,-1,0
-0.0886,-1,0
-0.08858,-1,0.04
-0.08856,-0.96,0
-0.08854,-0.96,0
-0.08852,-0.92,0
-0.0885,-0.88,-0.04
-0.08848,-0.88,0
-0.08846,-0.84,0
-0.08844,-0.84,0
-0.08842,-0.8,-0.04
-0.0884,-0.72,0
-0.08838,-0.68,0
-0.08836,-0.64,-0.04
-0.08834,-0.6,-0.04
-0.08832,-0.56,-0.04
-0.0883,-0.52,0
-0.08828,-0.48,0
-0.08826,-0.44,-0.04
-0.08824,-0.32,-0.04
-0.08822,-0.36,0
-0.0882,-0.28,-0.04
-0.08818,-0.24,0
-0.08816,-0.16,0
-0.08814,-0.12,-0.04
-0.08812,-0.12,-0.04
-0.0881,-0.04,-0.08
-0.08808,0.04,0
-0.08806,0.08,0
-0.08804,0.12,0
-0.08802,0.2,-0.04
-0.088,0.24,0
-0.08798,0.28,0
-0.08796,0.36,0
-0.08794,0.4,-0.04
-0.08792,0.44,0
-0.0879,0.48,0
-0.08788,0.52,-0.04
-0.08786,0.6,-0.04
-0.08784,0.64,-0.04
-0.08782,0.64,0
-0.0878,0.72,-0.04
-0.08778,0.76,0
-0.08776,0.8,-0.04
-0.08774,0.8,0
-0.08772,0.8,0
-0.0877,0.88,0
-0.08768,0.92,0
-0.08766,0.88,0
-0.08764,0.92,0
-0.08762,1,0
-0.0876,1,-0.04
-0.08758,0.96,0.04
-0.08756,0.96,0.04
-0.08754,1,0
-0.08752,1,0
-0.0875,1,0
-0.08748,1,0
-0.08746,1,0.04
-0.08744,1.04,0
-0.08742,0.96,0
-0.0874,0.96,0
-0.08738,0.92,0
-0.08736,0.88,0.04
-0.08734,0.88,0.04
-0.08732,0.88,0
-0.0873,0.84,0.04
-0.08728,0.84,0.04
-0.08726,0.8,0.04
-0.08724,0.72,0.04
-0.08722,0.72,0.04
-0.0872,0.68,0.04
-0.08718,0.64,0.04
-0.08716,0.6,0.04
-0.08714,0.56,0.04
-0.08712,0.52,0.04
-0.0871,0.48,0.04
-0.08708,0.4,0.04
-0.08706,0.36,0.04
-0.08704,0.32,0.08
-0.08702,0.28,0.04
-0.087,0.2,0.04
-0.08698,0.16,0
-0.08696,0.08,0.04
-0.08694,0.04,0.04
-0.08692,0.04,0.04
-0.0869,-0.04,0.04
-0.08688,-0.08,0.04
-0.08686,-0.12,0.08
-0.08684,-0.2,0.04
-0.08682,-0.24,0.08
-0.0868,-0.28,0.04
-0.08678,-0.32,0.04
-0.08676,-0.4,0
-0.08674,-0.48,0.04
-0.08672,-0.52,0.04
-0.0867,-0.56,0.04
-0.08668,-0.6,0.08
-0.08666,-0.6,0
-0.08664,-0.68,0.04
-0.08662,-0.72,0.04
-0.0866,-0.76,0.04
-0.08658,-0.76,0.04
-0.08656,-0.84,0.04
-0.08654,-0.84,0.04
-0.08652,-0.92,0.04
-0.0865,-0.88,0.04
-0.08648,-0.92,0.04
-0.08646,-0.96,0.04
-0.08644,-0.96,0
-0.08642,-1,0.04
-0.0864,-1,0
-0.08638,-1.04,0.04
-0.08636,-1.04,0.04
-0.08634,-1.04,0
-0.08632,-1.04,-0.04
-0.0863,-1,0
-0.08628,-1,0
-0.08626,-1.04,0
-0.08624,-1,0
-0.08622,-1,-0.04
-0.0862,-1,-0.04
-0.08618,-0.96,0
-0.08616,-0.92,0
-0.08614,-0.92,-0.08
-0.08612,-0.92,0
-0.0861,-0.88,-0.04
-0.08608,-0.84,0
-0.08606,-0.8,0
-0.08604,-0.76,-0.04
-0.08602,-0.72,-0.04
-0.086,-0.68,0
-0.08598,-0.68,-0.04
-0.08596,-0.6,-0.04
-0.08594,-0.56,-0.04
-0.08592,-0.52,0
-0.0859,-0.48,-0.04
-0.08588,-0.44,-0.04
-0.08586,-0.4,0
-0.08584,-0.36,-0.04
-0.08582,-0.32,0
-0.0858,-0.24,-0.04
-0.08578,-0.2,0
-0.08576,-0.12,0
-0.08574,-0.08,-0.04
-0.08572,-0.04,0
-0.0857,0.04,-0.04
-0.08568,0.04,0
-0.08566,0.16,-0.04
-0.08564,0.16,-0.04
-0.08562,0.24,0
-0.0856,0.28,0
-0.08558,0.32,0
-0.08556,0.4,-0.04
-0.08554,0.44,-0.04
-0.08552,0.48,-0.04
-0.0855,0.52,-0.04
-0.08548,0.6,-0.04
-0.08546,0.6,-0.04
-0.08544,0.64,0
-0.08542,0.72,-0.04
-0.0854,0.72,0
-0.08538,0.76,0
-0.08536,0.8,-0.04
-0.08534,0.84,-0.04
-0.08532,0.88,0.04
-0.0853,0.92,0
-0.08528,0.88,0
-0.08526,0.96,0
-0.08524,0.96,0
-0.08522,1,0
-0.0852,0.96,0
-0.08518,1,0
-0.08516,1,0.04
-0.08514,1,0.04
-0.08512,0.96,0.04
-0.0851,1,0.04
-0.08508,1,0
-0.08506,0.96,0.04
-0.08504,0.96,0.04
-0.08502,1,0.04
-0.085,0.96,0.04
-0.08498,0.88,0.04
-0.08496,0.88,0
-0.08494,0.88,0.04
-0.08492,0.84,0
-0.0849,0.84,0
-0.08488,0.76,0.04
-0.08486,0.72,0.04
-0.08484,0.72,0.04
-0.08482,0.68,0.04
-0.0848,0.64,0.04
-0.08478,0.6,0.04
-0.08476,0.56,0.04
-0.08474,0.52,0.04
-0.08472,0.48,0.04
-0.0847,0.44,0.04
-0.08468,0.36,0.08
-0.08466,0.32,0.04
-0.08464,0.28,0.04
-0.08462,0.2,0.04
-0.0846,0.16,0.04
-0.08458,0.12,0.08
-0.08456,0.08,0.08
-0.08454,0,0.04
-0.08452,-0.04,0.04
-0.0845,-0.08,0.04
-0.08448,-0.16,0.04
-0.08446,-0.2,0.04
-0.08444,-0.24,0.04
-0.08442,-0.28,0.04
-0.0844,-0.36,0.08
-0.08438,-0.4,0.04
-0.08436,-0.44,0.04
-0.08434,-0.48,0.04
-0.08432,-0.56,0.04
-0.0843,-0.6,0
-0.08428,-0.64,0.04
-0.08426,-0.68,0.04
-0.08424,-0.72,0.04
-0.08422,-0.76,0.04
-0.0842,-0.8,0.04
-0.08418,-0.84,0
-0.08416,-0.88,0
-0.08414,-0.88,0.04
-0.08412,-0.92,0.04
-0.0841,-0.96,0.04
-0.08408,-0.96,0
-0.08406,-0.96,0
-0.08404,-0.96,0.04
-0.08402,-1,0
-0.084,-1,0
-0.08398,-1.04,0
-0.08396,-1.04,0
-0.08394,-1,0
-0.08392,-1,-0.04
-0.0839,-1.04,0
-0.08388,-1,0
-0.08386,-1,0
-0.08384,-1,0
-0.08382,-1,0
-0.0838,-0.96,-0.04
-0.08378,-0.96,0
-0.08376,-0.92,0
-0.08374,-0.92,0
-0.08372,-0.88,-0.04
-0.0837,-0.84,0
-0.08368,-0.8,0
-0.08366,-0.76,0
-0.08364,-0.76,0
-0.08362,-0.72,0
-0.0836,-0.68,0
-0.08358,-0.6,0
-0.08356,-0.6,0
-0.08354,-0.56,0
-0.08352,-0.48,-0.04
-0.0835,-0.4,-0.04
-0.08348,-0.36,0
-0.08346,-0.32,0
-0.08344,-0.32,-0.04
-0.08342,-0.2,-0.04
-0.0834,-0.2,-0.04
-0.08338,-0.12,-0.04
-0.08336,-0.04,-0.04
-0.08334,0,-0.04
-0.08332,0,0
-0.0833,0.12,-0.04
-0.08328,0.12,-0.04
-0.08326,0.2,0
-0.08324,0.24,-0.04
-0.08322,0.28,0
-0.0832,0.32,-0.04
-0.08318,0.44,0
-0.08316,0.44,0
-0.08314,0.44,-0.04
-0.08312,0.52,-0.04
-0.0831,0.56,-0.04
-0.08308,0.6,-0.04
-0.08306,0.68,0
-0.08304,0.68,0
-0.08302,0.72,0
-0.083,0.76,-0.04
-0.08298,0.8,-0.04
-0.08296,0.8,0
-0.08294,0.84,0.04
-0.08292,0.88,0
-0.0829,0.88,0
-0.08288,0.92,0
-0.08286,0.96,0
-0.08284,0.96,0
-0.08282,0.96,0
-0.0828,0.96,0
-0.08278,0.96,0.04
-0.08276,1,0
-0.08274,1,0
-0.08272,1,0.04
-0.0827,1,0.04
-0.08268,1,0
-0.08266,0.96,0
-0.08264,0.96,0.04
-0.08262,0.92,0
-0.0826,0.92,0.04
-0.08258,0.88,0
-0.08256,0.88,0.04
-0.08254,0.88,0
-0.08252,0.88,0.04
-0.0825,0.76,0.04
-0.08248,0.76,0.04
-0.08246,0.72,0.04
-0.08244,0.68,0.04
-0.08242,0.6,0.04
-0.0824,0.6,0.08
-0.08238,0.56,0.04
-0.08236,0.52,0.04
-0.08234,0.48,0.04
-0.08232,0.4,0.04
-0.0823,0.36,0.04
-0.08228,0.32,0.04
-0.08226,0.28,0.04
-0.08224,0.2,0.04
-0.08222,0.2,0.08
-0.0822,0.12,0.08
-0.08218,0.04,0.08
-0.08216,0,0.04
-0.08214,-0.04,0.04
-0.08212,-0.08,0.04
-0.0821,-0.12,0.04
-0.08208,-0.16,0
-0.08206,-0.24,0.04
-0.08204,-0.32,0.04
-0.08202,-0.36,0.04
-0.082,-0.44,0.04
-0.08198,-0.48,0
-0.08196,-0.52,0.04
-0.08194,-0.56,0
-0.08192,-0.6,0
-0.0819,-0.64,0.04
-0.08188,-0.68,0.04
-0.08186,-0.72,0
-0.08184,-0.76,0.08
-0.08182,-0.8,0.04
-0.0818,-0.84,0.04
-0.08178,-0.84,0.04
-0.08176,-0.92,0.04
-0.08174,-0.88,0.04
-0.08172,-0.92,0
-0.0817,-0.96,0
-0.08168,-0.96,0
-0.08166,-1,0
-0.08164,-1,0.04
-0.08162,-1.04,0
-0.0816,-1.04,0
-0.08158,-1,0.04
-0.08156,-1,0
-0.08154,-1.04,0.04
-0.08152,-1.04,0.04
-0.0815,-1,0
-0.08148,-1,0
-0.08146,-1,0
-0.08144,-0.96,0
-0.08142,-0.96,0
-0.0814,-0.96,0
-0.08138,-0.92,0
-0.08136,-0.88,-0.04
-0.08134,-0.88,-0.04
-0.08132,-0.84,0
-0.0813,-0.8,0
-0.08128,-0.8,0
-0.08126,-0.76,0
-0.08124,-0.72,0
-0.08122,-0.64,-0.04
-0.0812,-0.64,-0.04
-0.08118,-0.6,-0.04
-0.08116,-0.56,0
-0.08114,-0.52,0
-0.08112,-0.44,0
-0.0811,-0.4,-0.04
-0.08108,-0.36,0
-0.08106,-0.32,0
-0.08104,-0.24,-0.04
-0.08102,-0.2,-0.04
-0.081,-0.12,-0.04
-0.08098,-0.12,0
-0.08096,-0.04,-0.04
-0.08094,0.04,0
-0.08092,0.08,0
-0.0809,0.12,0
-0.08088,0.16,-0.04
-0.08086,0.24,0
-0.08084,0.24,-0.04
-0.08082,0.32,-0.04
-0.0808,0.36,-0.04
-0.08078,0.44,0
-0.08076,0.48,0
-0.08074,0.52,0.04
-0.08072,0.56,0.04
-0.0807,0.64,0
-0.08068,0.64,0
-0.08066,0.72,-0.04
-0.08064,0.72,0
-0.08062,0.72,-0.04
-0.0806,0.8,0
-0.08058,0.84,0
-0.08056,0.88,-0.04
-0.08054,0.88,0
-0.08052,0.92,-0.04
-0.0805,0.96,0
-0.08048,0.92,-0.04
-0.08046,0.96,0
-0.08044,1,0.04
-0.08042,0.96,0
-0.0804,0.96,0.04
-0.08038,1,0
-0.08036,1,0.04
-0.08034,1,0.04
-0.08032,1,0
-0.0803,0.96,0
-0.08028,1,0
-0.08026,1,0.04
-0.08024,0.96,0
-0.08022,0.92,0.04
-0.0802,0.88,0.04
-0.08018,0.88,0.04
-0.08016,0.88,0.04
-0.08014,0.8,0
-0.08012,0.8,0.04
-0.0801,0.76,0.04
-0.08008,0.72,0.04
-0.08006,0.64,0
-0.08004,0.68,0.04
-0.08002,0.6,0
-0.08,0.56,0.04
-0.07998,0.52,0.08
-0.07996,0.48,0.04
-0.07994,0.4,0.04
-0.07992,0.4,0.04
-0.0799,0.32,0.04
-0.07988,0.28,0.04
-0.07986,0.24,0.04
-0.07984,0.16,0.04
-0.07982,0.12,0.04
-0.0798,0.08,0.04
-0.07978,0.04,0.04
-0.07976,-0.04,0.04
-0.07974,-0.08,0.04
-0.07972,-0.12,0.04
-0.0797,-0.2,0.04
-0.07968,-0.28,0.04
-0.07966,-0.28,0.04
-0.07964,-0.36,0.04
-0.07962,-0.36,0.04
-0.0796,-0.44,0.04
-0.07958,-0.48,0.04
-0.07956,-0.52,0.04
-0.07954,-0.6,0.04
-0.07952,-0.64,0.08
-0.0795,-0.68,0.04
-0.07948,-0.72,0.04
-0.07946,-0.76,0.04
-0.07944,-0.8,0.04
-0.07942,-0.84,0.04
-0.0794,-0.88,0.04
-0.07938,-0.88,0.04
-0.07936,-0.88,0
-0.07934,-0.92,0.04
-0.07932,-0.96,0.04
-0.0793,-0.96,0
-0.07928,-1,0
-0.07926,-1,0.04
-0.07924,-1,0
-0.07922,-1,0.04
-0.0792,-1,0.04
-0.07918,-1.08,0
-0.07916,-1,0
-0.07914,-1.04,0
-0.07912,-1.04,0
-0.0791,-1,0
-0.07908,-1,0
-0.07906,-0.96,0
-0.07904,-1,0
-0.07902,-0.96,0
-0.079,-0.88,0
-0.07898,-0.88,0
-0.07896,-0.88,-0.04
-0.07894,-0.84,-0.04
-0.07892,-0.8,0
-0.0789,-0.8,-0.04
-0.07888,-0.76,0
-0.07886,-0.68,-0.04
-0.07884,-0.64,0
-0.07882,-0.64,0
-0.0788,-0.56,0
-0.07878,-0.52,-0.04
-0.07876,-0.44,0
-0.07874,-0.44,-0.04
-0.07872,-0.4,-0.04
-0.0787,-0.32,0
-0.07868,-0.24,-0.04
-0.07866,-0.24,0
-0.07864,-0.2,-0.04
-0.07862,-0.12,0
-0.0786,-0.12,-0.04
-0.07858,-0.04,-0.04
-0.07856,0.04,0
-0.07854,0.08,-0.04
-0.07852,0.16,0
-0.0785,0.16,-0.04
-0.07848,0.24,0
-0.07846,0.28,0
-0.07844,0.32,0
-0.07842,0.4,0
-0.0784,0.44,0
-0.07838,0.48,-0.04
-0.07836,0.52,0
-0.07834,0.6,0
-0.07832,0.6,0
-0.0783,0.68,-0.04
-0.07828,0.68,0
-0.07826,0.76,0
-0.07824,0.76,-0.04
-0.07822,0.76,-0.04
-0.0782,0.8,-0.04
-0.07818,0.84,0
-0.07816,0.88,-0.04
-0.07814,0.92,-0.04
-0.07812,0.92,0
-0.0781,0.96,0
-0.07808,0.96,0
-0.07806,0.96,0.04
-0.07804,0.96,0
