lab3/data/task2_sin_260.csv

Model,MDO34,
Firmware Version,CF:91.1CT FV:v1.6.0,
,,
Waveform Type,ANALOG,ANALOG
Point Format,Y,Y
Horizontal Units,"s","s"
Horizontal Scale,0.02,0.02
Horizontal Delay,0,0
Sample Interval,2E-05,2E-05
Record Length,10000,10000
Gating,0.0% to 100.0%,0.0% to 100.0%
Probe Attenuation,1X,1X
Vertical Units,"V","V"
Vertical Offset,30,-43.5
Vertical Scale,1,1
Vertical Position,1.2,-1.74
,,
,,
,,
Label,"",""
TIME,CH1,CH2
-0.1,0,0.14
-0.09998,0.04,0.14
-0.09996,0.08,0.18
-0.09994,0.12,0.22
-0.09992,0.16,0.26
-0.0999,0.16,0.26
-0.09988,0.24,0.3
-0.09986,0.24,0.34
-0.09984,0.28,0.38
-0.09982,0.32,0.42
-0.0998,0.32,0.42
-0.09978,0.36,0.46
-0.09976,0.4,0.5
-0.09974,0.4,0.46
-0.09972,0.44,0.54
-0.0997,0.48,0.58
-0.09968,0.52,0.58
-0.09966,0.56,0.62
-0.09964,0.56,0.66
-0.09962,0.6,0.7
-0.0996,0.6,0.7
-0.09958,0.64,0.74
-0.09956,0.68,0.74
-0.09954,0.68,0.78
-0.09952,0.72,0.78
-0.0995,0.72,0.78
-0.09948,0.76,0.86
-0.09946,0.76,0.86
-0.09944,0.84,0.9
-0.09942,0.84,0.86
-0.0994,0.88,0.9
-0.09938,0.88,0.94
-0.09936,0.84,0.94
-0.09934,0.88,0.94
-0.09932,0.88,0.94
-0.0993,0.88,0.98
-0.09928,0.88,0.98
-0.09926,0.92,0.98
-0.09924,0.96,1.02
-0.09922,0.96,1.02
-0.0992,1,0.98
-0.09918,0.96,0.98
-0.09916,0.96,1.02
-0.09914,0.96,1.02
-0.09912,1,1.02
-0.0991,0.96,1.02
-0.09908,1,1.02
-0.09906,1,1.02
-0.09904,0.96,1.02
-0.09902,0.96,1.02
-0.099,1,1.06
-0.09898,0.96,0.98
-0.09896,1,0.98
-0.09894,0.96,1.02
-0.09892,0.96,0.98
-0.0989,0.96,0.94
-0.09888,0.96,0.94
-0.09886,0.96,0.94
-0.09884,0.96,0.9
-0.09882,0.92,0.9
-0.0988,0.92,0.9
-0.09878,0.92,0.9
-0.09876,0.88,0.86
-0.09874,0.88,0.82
-0.09872,0.8,0.82
-0.0987,0.8,0.78
-0.09868,0.76,0.78
-0.09866,0.8,0.74
-0.09864,0.76,0.74
-0.09862,0.68,0.74
-0.0986,0.72,0.66
-0.09858,0.68,0.66
-0.09856,0.68,0.62
-0.09854,0.64,0.62
-0.09852,0.6,0.58
-0.0985,0.56,0.58
-0.09848,0.56,0.54
-0.09846,0.52,0.5
-0.09844,0.48,0.46
-0.09842,0.48,0.46
-0.0984,0.44,0.42
-0.09838,0.4,0.38
-0.09836,0.36,0.34
-0.09834,0.32,0.34
-0.09832,0.36,0.34
-0.0983,0.32,0.26
-0.09828,0.24,0.22
-0.09826,0.2,0.22
-0.09824,0.2,0.18
-0.09822,0.2,0.14
-0.0982,0.16,0.09999999
-0.09818,0.08,0.06
-0.09816,0.08,0.06
-0.09814,0.08,0.02
-0.09812,0.04,-0.02
-0.0981,0,-0.06
-0.09808,-0.04,-0.09999999
-0.09806,-0.12,-0.09999999
-0.09804,-0.12,-0.14
-0.09802,-0.16,-0.22
-0.098,-0.2,-0.22
-0.09798,-0.2,-0.26
-0.09796,-0.24,-0.26
-0.09794,-0.24,-0.34
-0.09792,-0.32,-0.34
-0.0979,-0.32,-0.42
-0.09788,-0.4,-0.42
-0.09786,-0.4,-0.42
-0.09784,-0.44,-0.46
-0.09782,-0.48,-0.5
-0.0978,-0.44,-0.5
-0.09778,-0.56,-0.58
-0.09776,-0.56,-0.58
-0.09774,-0.56,-0.58
-0.09772,-0.6,-0.66
-0.0977,-0.6,-0.66
-0.09768,-0.64,-0.66
-0.09766,-0.64,-0.74
-0.09764,-0.72,-0.74
-0.09762,-0.72,-0.78
-0.0976,-0.76,-0.82
-0.09758,-0.8,-0.82
-0.09756,-0.76,-0.82
-0.09754,-0.84,-0.82
-0.09752,-0.8,-0.82
-0.0975,-0.84,-0.82
-0.09748,-0.84,-0.86
-0.09746,-0.92,-0.86
-0.09744,-0.92,-0.9
-0.09742,-0.92,-0.86
-0.0974,-0.96,-0.9
-0.09738,-0.96,-0.9
-0.09736,-0.96,-0.94
-0.09734,-0.96,-0.94
-0.09732,-1,-0.94
-0.0973,-1,-0.98
-0.09728,-1.04,-0.94
-0.09726,-1,-0.98
-0.09724,-1,-0.98
-0.09722,-1,-0.94
-0.0972,-1,-0.94
-0.09718,-1.04,-1.02
-0.09716,-1,-0.98
-0.09714,-1.04,-0.98
-0.09712,-1.04,-0.94
-0.0971,-1.04,-0.94
-0.09708,-1,-0.98
-0.09706,-1,-0.94
-0.09704,-1,-0.98
-0.09702,-1,-0.94
-0.097,-1,-0.94
-0.09698,-1,-0.9
-0.09696,-0.96,-0.9
-0.09694,-0.96,-0.9
-0.09692,-0.96,-0.9
-0.0969,-1,-0.86
-0.09688,-0.96,-0.86
-0.09686,-0.92,-0.86
-0.09684,-0.88,-0.86
-0.09682,-0.92,-0.86
-0.0968,-0.88,-0.82
-0.09678,-0.88,-0.78
-0.09676,-0.84,-0.78
-0.09674,-0.84,-0.74
-0.09672,-0.8,-0.7
-0.0967,-0.8,-0.7
-0.09668,-0.76,-0.7
-0.09666,-0.68,-0.66
-0.09664,-0.72,-0.62
-0.09662,-0.68,-0.58
-0.0966,-0.64,-0.62
-0.09658,-0.64,-0.54
-0.09656,-0.64,-0.58
-0.09654,-0.56,-0.46
-0.09652,-0.56,-0.46
-0.0965,-0.52,-0.42
-0.09648,-0.48,-0.42
-0.09646,-0.48,-0.42
-0.09644,-0.44,-0.38
-0.09642,-0.4,-0.3
-0.0964,-0.36,-0.26
-0.09638,-0.32,-0.26
-0.09636,-0.32,-0.22
-0.09634,-0.28,-0.18
-0.09632,-0.24,-0.18
-0.0963,-0.2,-0.09999999
-0.09628,-0.16,-0.06
-0.09626,-0.12,-0.06
-0.09624,-0.08,-0.02
-0.09622,-0.08,-0.02
-0.0962,-0.04,0.06
-0.09618,0,0.06
-0.09616,0,0.09999999
-0.09614,0.04,0.18
-0.09612,0.08,0.14
-0.0961,0.12,0.18
-0.09608,0.12,0.26
-0.09606,0.2,0.26
-0.09604,0.16,0.3
-0.09602,0.24,0.34
-0.096,0.24,0.38
-0.09598,0.28,0.38
-0.09596,0.32,0.42
-0.09594,0.4,0.46
-0.09592,0.4,0.46
-0.0959,0.4,0.5
-0.09588,0.44,0.54
-0.09586,0.48,0.54
-0.09584,0.52,0.62
-0.09582,0.52,0.58
-0.0958,0.6,0.66
-0.09578,0.6,0.62
-0.09576,0.6,0.66
-0.09574,0.64,0.7
-0.09572,0.64,0.74
-0.0957,0.68,0.78
-0.09568,0.72,0.74
-0.09566,0.72,0.82
-0.09564,0.76,0.82
-0.09562,0.8,0.86
-0.0956,0.8,0.86
-0.09558,0.8,0.9
-0.09556,0.84,0.9
-0.09554,0.84,0.94
-0.09552,0.88,0.94
-0.0955,0.88,0.94
-0.09548,0.92,0.94
-0.09546,0.92,0.94
-0.09544,0.92,0.98
-0.09542,0.96,0.98
-0.0954,0.96,1.02
-0.09538,0.96,0.98
-0.09536,0.96,0.98
-0.09534,1,1.02
-0.09532,1,0.98
-0.0953,1,1.02
-0.09528,1,1.02
-0.09526,1,1.02
-0.09524,1,1.02
-0.09522,1,1.02
-0.0952,1,1.02
-0.09518,1.04,0.98
-0.09516,0.96,1.02
-0.09514,0.96,0.98
-0.09512,1,1.02
-0.0951,1,0.98
-0.09508,0.92,0.94
-0.09506,1,0.98
-0.09504,0.92,0.98
-0.09502,0.92,0.94
-0.095,0.92,0.94
-0.09498,0.88,0.9
-0.09496,0.88,0.9
-0.09494,0.92,0.9
-0.09492,0.88,0.86
-0.0949,0.88,0.82
-0.09488,0.84,0.82
-0.09486,0.84,0.82
-0.09484,0.8,0.78
-0.09482,0.76,0.78
-0.0948,0.76,0.74
-0.09478,0.76,0.7
-0.09476,0.76,0.74
-0.09474,0.72,0.7
-0.09472,0.68,0.66
-0.0947,0.64,0.62
-0.09468,0.64,0.58
-0.09466,0.6,0.58
-0.09464,0.56,0.54
-0.09462,0.52,0.5
-0.0946,0.56,0.46
-0.09458,0.48,0.46
-0.09456,0.44,0.42
-0.09454,0.44,0.42
-0.09452,0.4,0.34
-0.0945,0.36,0.34
-0.09448,0.32,0.3
-0.09446,0.24,0.26
-0.09444,0.28,0.26
-0.09442,0.24,0.22
-0.0944,0.2,0.18
-0.09438,0.16,0.09999999
-0.09436,0.16,0.09999999
-0.09434,0.08,0.09999999
-0.09432,0.08,0.06
-0.0943,0.08,0.02
-0.09428,0,-0.02
-0.09426,0,-0.09999999
-0.09424,-0.04,-0.06
-0.09422,-0.08,-0.09999999
-0.0942,-0.08,-0.14
-0.09418,-0.12,-0.18
-0.09416,-0.2,-0.22
-0.09414,-0.2,-0.22
-0.09412,-0.2,-0.26
-0.0941,-0.24,-0.3
-0.09408,-0.32,-0.34
-0.09406,-0.36,-0.38
-0.09404,-0.36,-0.38
-0.09402,-0.4,-0.46
-0.094,-0.4,-0.42
-0.09398,-0.44,-0.46
-0.09396,-0.52,-0.5
-0.09394,-0.52,-0.54
-0.09392,-0.56,-0.58
-0.0939,-0.6,-0.58
-0.09388,-0.6,-0.58
-0.09386,-0.64,-0.66
-0.09384,-0.64,-0.66
-0.09382,-0.68,-0.7
-0.0938,-0.72,-0.7
-0.09378,-0.76,-0.78
-0.09376,-0.76,-0.74
-0.09374,-0.76,-0.82
-0.09372,-0.8,-0.78
-0.0937,-0.8,-0.82
-0.09368,-0.84,-0.82
-0.09366,-0.84,-0.82
-0.09364,-0.84,-0.86
-0.09362,-0.88,-0.86
-0.0936,-0.88,-0.9
-0.09358,-0.92,-0.9
-0.09356,-0.96,-0.9
-0.09354,-0.96,-0.9
-0.09352,-0.96,-0.94
-0.0935,-0.96,-0.98
-0.09348,-0.96,-0.94
-0.09346,-1,-0.94
-0.09344,-0.96,-0.94
-0.09342,-1,-0.98
-0.0934,-1,-0.98
-0.09338,-1,-0.94
-0.09336,-1.04,-1.02
-0.09334,-1,-0.98
-0.09332,-1,-0.98
-0.0933,-1.04,-0.98
-0.09328,-1,-0.94
-0.09326,-1,-0.98
-0.09324,-1,-0.98
-0.09322,-1.04,-0.98
-0.0932,-1,-0.94
-0.09318,-1,-0.94
-0.09316,-1,-0.94
-0.09314,-1,-0.94
-0.09312,-0.96,-0.94
-0.0931,-1.04,-0.9
-0.09308,-0.96,-0.86
-0.09306,-0.96,-0.86
-0.09304,-0.96,-0.86
-0.09302,-0.92,-0.86
-0.093,-0.88,-0.86
-0.09298,-0.88,-0.86
-0.09296,-0.88,-0.82
-0.09294,-0.88,-0.82
-0.09292,-0.84,-0.78
-0.0929,-0.8,-0.74
-0.09288,-0.8,-0.74
-0.09286,-0.76,-0.74
-0.09284,-0.76,-0.7
-0.09282,-0.76,-0.7
-0.0928,-0.72,-0.62
-0.09278,-0.68,-0.62
-0.09276,-0.68,-0.62
-0.09274,-0.64,-0.58
-0.09272,-0.6,-0.54
-0.0927,-0.6,-0.54
-0.09268,-0.6,-0.5
-0.09266,-0.56,-0.46
-0.09264,-0.48,-0.42
-0.09262,-0.48,-0.42
-0.0926,-0.44,-0.38
-0.09258,-0.4,-0.34
-0.09256,-0.36,-0.3
-0.09254,-0.32,-0.26
-0.09252,-0.32,-0.26
-0.0925,-0.32,-0.22
-0.09248,-0.24,-0.18
-0.09246,-0.2,-0.14
-0.09244,-0.2,-0.09999999
-0.09242,-0.16,-0.06
-0.0924,-0.12,-0.02
-0.09238,-0.08,0.02
-0.09236,-0.04,0.06
-0.09234,0,0.02
-0.09232,0,0.06
-0.0923,0.04,0.14
-0.09228,0.08,0.22
-0.09226,0.08,0.18
-0.09224,0.12,0.26
-0.09222,0.16,0.26
-0.0922,0.16,0.3
-0.09218,0.2,0.3
-0.09216,0.28,0.34
-0.09214,0.28,0.38
-0.09212,0.32,0.38
-0.0921,0.36,0.46
-0.09208,0.36,0.46
-0.09206,0.4,0.5
-0.09204,0.48,0.5
-0.09202,0.44,0.58
-0.092,0.52,0.58
-0.09198,0.52,0.62
-0.09196,0.6,0.66
-0.09194,0.6,0.66
-0.09192,0.64,0.66
-0.0919,0.6,0.7
-0.09188,0.64,0.74
-0.09186,0.72,0.78
-0.09184,0.68,0.78
-0.09182,0.72,0.78
-0.0918,0.76,0.82
-0.09178,0.76,0.86
-0.09176,0.8,0.86
-0.09174,0.8,0.86
-0.09172,0.84,0.9
-0.0917,0.84,0.9
-0.09168,0.88,0.9
-0.09166,0.88,0.94
-0.09164,0.92,0.9
-0.09162,0.84,0.94
-0.0916,0.92,0.98
-0.09158,0.96,0.98
-0.09156,0.96,0.98
-0.09154,0.96,0.98
-0.09152,0.96,1.02
-0.0915,1,0.98
-0.09148,0.96,1.02
-0.09146,0.96,1.02
-0.09144,1.04,1.02
-0.09142,1,1.06
-0.0914,1,1.02
-0.09138,1,1.02
-0.09136,1,1.02
-0.09134,1,1.02
-0.09132,1,1.02
-0.0913,1,0.98
-0.09128,0.96,0.98
-0.09126,0.96,0.98
-0.09124,0.96,0.98
-0.09122,0.92,0.98
-0.0912,0.96,0.98
-0.09118,0.96,0.94
-0.09116,0.92,0.94
-0.09114,0.88,0.9
-0.09112,0.92,0.9
-0.0911,0.88,0.9
-0.09108,0.88,0.9
-0.09106,0.84,0.9
-0.09104,0.88,0.82
-0.09102,0.84,0.78
-0.091,0.84,0.82
-0.09098,0.8,0.78
-0.09096,0.76,0.7
-0.09094,0.76,0.74
-0.09092,0.72,0.7
-0.0909,0.72,0.7
-0.09088,0.72,0.66
-0.09086,0.64,0.62
-0.09084,0.64,0.58
-0.09082,0.6,0.58
-0.0908,0.56,0.54
-0.09078,0.56,0.54
-0.09076,0.52,0.5
-0.09074,0.52,0.46
-0.09072,0.48,0.42
-0.0907,0.44,0.42
-0.09068,0.4,0.38
-0.09066,0.4,0.34
-0.09064,0.36,0.3
-0.09062,0.36,0.3
-0.0906,0.28,0.26
-0.09058,0.28,0.22
-0.09056,0.2,0.22
-0.09054,0.2,0.14
-0.09052,0.16,0.09999999
-0.0905,0.12,0.09999999
-0.09048,0.08,0.06
-0.09046,0.08,0.02
-0.09044,0.08,-0.02
-0.09042,0.04,0.02
-0.0904,-0.04,-0.06
-0.09038,-0.04,-0.14
-0.09036,-0.12,-0.14
-0.09034,-0.12,-0.14
-0.09032,-0.12,-0.18
-0.0903,-0.2,-0.26
-0.09028,-0.2,-0.26
-0.09026,-0.24,-0.34
-0.09024,-0.28,-0.3
-0.09022,-0.28,-0.34
-0.0902,-0.36,-0.38
-0.09018,-0.4,-0.42
-0.09016,-0.4,-0.42
-0.09014,-0.44,-0.5
-0.09012,-0.48,-0.5
-0.0901,-0.56,-0.54
-0.09008,-0.52,-0.58
-0.09006,-0.56,-0.58
-0.09004,-0.6,-0.66
-0.09002,-0.6,-0.66
-0.09,-0.64,-0.62
-0.08998,-0.72,-0.7
-0.08996,-0.72,-0.7
-0.08994,-0.72,-0.7
-0.08992,-0.76,-0.74
-0.0899,-0.72,-0.74
-0.08988,-0.8,-0.78
-0.08986,-0.8,-0.82
-0.08984,-0.84,-0.82
-0.08982,-0.84,-0.82
-0.0898,-0.84,-0.82
-0.08978,-0.92,-0.86
-0.08976,-0.92,-0.9
-0.08974,-0.88,-0.86
-0.08972,-0.92,-0.9
-0.0897,-0.92,-0.94
-0.08968,-0.92,-0.94
-0.08966,-0.96,-0.98
-0.08964,-0.96,-0.9
-0.08962,-1,-0.9
-0.0896,-0.96,-0.98
-0.08958,-1,-0.98
-0.08956,-0.96,-0.94
-0.08954,-1,-0.94
-0.08952,-1,-0.98
-0.0895,-1,-0.98
-0.08948,-1.04,-0.94
-0.08946,-1.04,-0.98
-0.08944,-1.04,-0.98
-0.08942,-1,-0.94
-0.0894,-1,-0.98
-0.08938,-1,-0.94
-0.08936,-1.04,-0.94
-0.08934,-1,-0.9
-0.08932,-0.96,-0.94
-0.0893,-0.96,-0.9
-0.08928,-1,-0.9
-0.08926,-0.96,-0.9
-0.08924,-1,-0.86
-0.08922,-0.96,-0.86
-0.0892,-0.96,-0.86
-0.08918,-0.92,-0.9
-0.08916,-0.92,-0.86
-0.08914,-0.92,-0.86
-0.08912,-0.88,-0.82
-0.0891,-0.88,-0.82
-0.08908,-0.88,-0.78
-0.08906,-0.84,-0.78
-0.08904,-0.8,-0.74
-0.08902,-0.84,-0.74
-0.089,-0.76,-0.74
-0.08898,-0.76,-0.7
-0.08896,-0.72,-0.66
-0.08894,-0.72,-0.62
-0.08892,-0.68,-0.58
-0.0889,-0.6,-0.58
-0.08888,-0.6,-0.54
-0.08886,-0.6,-0.54
-0.08884,-0.56,-0.5
-0.08882,-0.52,-0.46
-0.0888,-0.52,-0.42
-0.08878,-0.52,-0.42
-0.08876,-0.48,-0.34
-0.08874,-0.4,-0.3
-0.08872,-0.4,-0.34
-0.0887,-0.36,-0.26
-0.08868,-0.32,-0.26
-0.08866,-0.32,-0.22
-0.08864,-0.28,-0.26
-0.08862,-0.24,-0.14
-0.0886,-0.2,-0.06
-0.08858,-0.16,-0.09999999
-0.08856,-0.12,-0.02
-0.08854,-0.08,-0.02
-0.08852,-0.04,0.02
-0.0885,-0.04,0.09999999
-0.08848,0,0.09999999
-0.08846,0.04,0.14
-0.08844,0.04,0.18
-0.08842,0.08,0.18
-0.0884,0.12,0.18
-0.08838,0.16,0.22
-0.08836,0.24,0.3
-0.08834,0.2,0.3
-0.08832,0.24,0.34
-0.0883,0.28,0.38
-0.08828,0.32,0.42
-0.08826,0.36,0.42
-0.08824,0.4,0.46
-0.08822,0.44,0.5
-0.0882,0.44,0.5
-0.08818,0.44,0.54
-0.08816,0.48,0.54
-0.08814,0.52,0.62
-0.08812,0.56,0.62
-0.0881,0.6,0.66
-0.08808,0.6,0.66
-0.08806,0.64,0.7
-0.08804,0.68,0.7
-0.08802,0.68,0.74
-0.088,0.72,0.74
-0.08798,0.72,0.78
-0.08796,0.72,0.78
-0.08794,0.72,0.82
-0.08792,0.8,0.86
-0.0879,0.8,0.9
-0.08788,0.84,0.9
-0.08786,0.84,0.9
-0.08784,0.88,0.9
-0.08782,0.88,0.94
-0.0878,0.88,0.94
-0.08778,0.88,0.94
-0.08776,0.92,0.94
-0.08774,0.92,0.98
-0.08772,0.96,0.98
-0.0877,0.96,1.02
-0.08768,0.96,1.02
-0.08766,0.96,1.02
-0.08764,1,1.02
-0.08762,1,1.02
-0.0876,1,1.02
-0.08758,1,1.02
-0.08756,1,1.06
-0.08754,1,1.02
-0.08752,1,1.02
-0.0875,1,1.02
-0.08748,1,1.02
-0.08746,1,1.02
-0.08744,1,0.98
-0.08742,1,1.02
-0.0874,0.96,0.98
-0.08738,1,0.98
-0.08736,0.96,0.94
-0.08734,0.96,0.94
-0.08732,0.92,0.9
-0.0873,0.92,0.94
-0.08728,0.92,0.9
-0.08726,0.92,0.9
-0.08724,0.88,0.9
-0.08722,0.84,0.86
-0.0872,0.84,0.82
-0.08718,0.84,0.82
-0.08716,0.84,0.78
-0.08714,0.8,0.82
-0.08712,0.76,0.74
-0.0871,0.8,0.74
-0.08708,0.76,0.74
-0.08706,0.72,0.7
-0.08704,0.68,0.7
-0.08702,0.68,0.62
-0.087,0.64,0.62
-0.08698,0.64,0.58
-0.08696,0.56,0.54
-0.08694,0.56,0.54
-0.08692,0.56,0.5
-0.0869,0.48,0.5
-0.08688,0.48,0.46
-0.08686,0.48,0.42
-0.08684,0.44,0.42
-0.08682,0.4,0.34
-0.0868,0.36,0.38
-0.08678,0.32,0.34
-0.08676,0.28,0.26
-0.08674,0.28,0.22
-0.08672,0.24,0.22
-0.0867,0.2,0.14
-0.08668,0.16,0.09999999
-0.08666,0.16,0.09999999
-0.08664,0.08,0.09999999
-0.08662,0.08,0.02
-0.0866,0.04,0.02
-0.08658,0.04,0.02
-0.08656,0,-0.06
-0.08654,0,-0.09999999
-0.08652,-0.08,-0.14
-0.0865,-0.12,-0.14
-0.08648,-0.16,-0.18
-0.08646,-0.2,-0.22
-0.08644,-0.24,-0.22
-0.08642,-0.24,-0.3
-0.0864,-0.28,-0.34
-0.08638,-0.28,-0.38
-0.08636,-0.36,-0.38
-0.08634,-0.36,-0.46
-0.08632,-0.4,-0.42
-0.0863,-0.44,-0.5
-0.08628,-0.48,-0.5
-0.08626,-0.52,-0.54
-0.08624,-0.52,-0.54
-0.08622,-0.56,-0.58
-0.0862,-0.6,-0.58
-0.08618,-0.6,-0.62
-0.08616,-0.6,-0.66
-0.08614,-0.64,-0.66
-0.08612,-0.68,-0.74
-0.0861,-0.72,-0.7
-0.08608,-0.72,-0.78
-0.08606,-0.76,-0.74
-0.08604,-0.8,-0.82
-0.08602,-0.8,-0.78
-0.086,-0.8,-0.82
-0.08598,-0.84,-0.82
-0.08596,-0.84,-0.86
-0.08594,-0.88,-0.86
-0.08592,-0.88,-0.86
-0.0859,-0.92,-0.86
-0.08588,-0.88,-0.86
-0.08586,-0.96,-0.9
-0.08584,-0.92,-0.9
-0.08582,-0.96,-0.94
-0.0858,-1,-0.94
-0.08578,-1,-0.94
-0.08576,-1,-0.98
-0.08574,-1,-0.94
-0.08572,-1,-0.98
-0.0857,-1,-0.98
-0.08568,-1,-0.98
-0.08566,-1.04,-0.98
-0.08564,-1.04,-0.98
-0.08562,-1.04,-0.94
-0.0856,-1,-0.98
-0.08558,-1,-0.94
-0.08556,-1.04,-0.98
-0.08554,-1.04,-0.98
-0.08552,-1,-0.94
-0.0855,-1.04,-0.98
-0.08548,-1,-0.94
-0.08546,-1,-0.94
-0.08544,-0.96,-0.9
-0.08542,-1,-0.9
-0.0854,-0.96,-0.94
-0.08538,-0.96,-0.94
-0.08536,-0.96,-0.86
-0.08534,-0.92,-0.86
-0.08532,-0.92,-0.86
-0.0853,-0.92,-0.82
-0.08528,-0.88,-0.82
-0.08526,-0.84,-0.82
-0.08524,-0.84,-0.82
-0.08522,-0.84,-0.74
-0.0852,-0.84,-0.74
-0.08518,-0.8,-0.7
-0.08516,-0.76,-0.7
-0.08514,-0.76,-0.7
-0.08512,-0.72,-0.7
-0.0851,-0.72,-0.62
-0.08508,-0.68,-0.62
-0.08506,-0.64,-0.58
-0.08504,-0.6,-0.54
-0.08502,-0.6,-0.54
-0.085,-0.56,-0.46
-0.08498,-0.56,-0.46
-0.08496,-0.56,-0.46
-0.08494,-0.52,-0.42
-0.08492,-0.44,-0.34
-0.0849,-0.48,-0.34
-0.08488,-0.4,-0.34
-0.08486,-0.4,-0.22
-0.08484,-0.36,-0.26
-0.08482,-0.28,-0.22
-0.0848,-0.28,-0.18
-0.08478,-0.24,-0.14
-0.08476,-0.24,-0.14
-0.08474,-0.16,-0.09999999
-0.08472,-0.12,-0.06
-0.0847,-0.12,-0.02
-0.08468,-0.04,-0.02
-0.08466,-0.04,0.06
-0.08464,0,0.06
-0.08462,0.04,0.09999999
-0.0846,0.04,0.14
-0.08458,0.08,0.14
-0.08456,0.08,0.22
-0.08454,0.16,0.26
-0.08452,0.2,0.26
-0.0845,0.24,0.3
-0.08448,0.24,0.34
-0.08446,0.24,0.38
-0.08444,0.28,0.42
-0.08442,0.32,0.42
-0.0844,0.36,0.46
-0.08438,0.4,0.5
-0.08436,0.44,0.46
-0.08434,0.44,0.54
-0.08432,0.48,0.54
-0.0843,0.48,0.62
-0.08428,0.52,0.58
-0.08426,0.56,0.66
-0.08424,0.6,0.66
-0.08422,0.6,0.7
-0.0842,0.68,0.7
-0.08418,0.64,0.74
-0.08416,0.68,0.78
-0.08414,0.72,0.78
-0.08412,0.72,0.82
-0.0841,0.8,0.86
-0.08408,0.8,0.86
-0.08406,0.84,0.86
-0.08404,0.8,0.9
-0.08402,0.84,0.9
-0.084,0.84,0.9
-0.08398,0.88,0.94
-0.08396,0.88,0.94
-0.08394,0.88,0.94
-0.08392,0.88,0.94
-0.0839,0.92,1.02
-0.08388,0.92,0.98
-0.08386,0.92,1.02
-0.08384,0.96,0.98
-0.08382,0.96,1.02
-0.0838,0.96,1.02
-0.08378,0.96,1.02
-0.08376,0.96,0.98
-0.08374,1,1.02
-0.08372,0.96,1.02
-0.0837,1,1.02
-0.08368,0.96,1.06
-0.08366,1,1.02
-0.08364,1,0.98
-0.08362,0.96,1.02
-0.0836,1,1.02
-0.08358,0.96,1.02
-0.08356,1,0.98
-0.08354,1,0.98
-0.08352,0.96,0.98
-0.0835,1,0.94
-0.08348,0.96,0.94
-0.08346,0.88,0.94
-0.08344,0.92,0.9
-0.08342,0.92,0.9
-0.0834,0.88,0.86
-0.08338,0.88,0.86
-0.08336,0.88,0.86
-0.08334,0.8,0.86
-0.08332,0.76,0.82
-0.0833,0.8,0.82
-0.08328,0.76,0.78
-0.08326,0.76,0.74
-0.08324,0.76,0.74
-0.08322,0.72,0.7
-0.0832,0.72,0.66
-0.08318,0.68,0.66
-0.08316,0.68,0.62
-0.08314,0.68,0.62
-0.08312,0.6,0.54
-0.0831,0.6,0.54
-0.08308,0.56,0.54
-0.08306,0.52,0.5
-0.08304,0.48,0.46
-0.08302,0.44,0.42
-0.083,0.44,0.42
-0.08298,0.44,0.38
-0.08296,0.4,0.34
-0.08294,0.32,0.34
-0.08292,0.28,0.3
-0.0829,0.28,0.26
-0.08288,0.24,0.22
-0.08286,0.2,0.18
-0.08284,0.16,0.14
-0.08282,0.16,0.14
-0.0828,0.12,0.09999999
-0.08278,0.08,0.02
-0.08276,0.04,0.02
-0.08274,0.04,-0.02
-0.08272,0,-0.06
-0.0827,-0.08,-0.06
-0.08268,-0.08,-0.09999999
-0.08266,-0.12,-0.14
-0.08264,-0.16,-0.18
-0.08262,-0.2,-0.22
-0.0826,-0.24,-0.26
-0.08258,-0.24,-0.26
-0.08256,-0.32,-0.3
-0.08254,-0.32,-0.3
-0.08252,-0.32,-0.38
-0.0825,-0.36,-0.38
-0.08248,-0.36,-0.42
-0.08246,-0.4,-0.42
-0.08244,-0.48,-0.5
-0.08242,-0.48,-0.5
-0.0824,-0.52,-0.58
-0.08238,-0.52,-0.54
-0.08236,-0.6,-0.58
-0.08234,-0.56,-0.66
-0.08232,-0.64,-0.66
-0.0823,-0.68,-0.7
-0.08228,-0.68,-0.7
-0.08226,-0.68,-0.74
-0.08224,-0.72,-0.74
-0.08222,-0.72,-0.78
-0.0822,-0.8,-0.78
-0.08218,-0.84,-0.82
-0.08216,-0.84,-0.82
-0.08214,-0.84,-0.82
-0.08212,-0.84,-0.86
-0.0821,-0.88,-0.86
-0.08208,-0.88,-0.86
-0.08206,-0.92,-0.86
-0.08204,-0.92,-0.9
-0.08202,-0.92,-0.9
-0.082,-0.92,-0.9
-0.08198,-0.96,-0.9
-0.08196,-1,-0.94
-0.08194,-1,-0.94
-0.08192,-1,-0.94
-0.0819,-1,-0.94
-0.08188,-1,-0.98
-0.08186,-1.04,-0.98
-0.08184,-1,-0.98
-0.08182,-1,-0.98
-0.0818,-1.04,-0.98
-0.08178,-1.04,-0.98
-0.08176,-1.04,-0.94
-0.08174,-1,-0.98
-0.08172,-1,-0.98
-0.0817,-1,-0.94
-0.08168,-1,-0.94
-0.08166,-0.96,-0.94
-0.08164,-1,-0.94
-0.08162,-1.04,-0.94
-0.0816,-1,-0.9
-0.08158,-1,-0.9
-0.08156,-1,-0.9
-0.08154,-0.96,-0.9
-0.08152,-0.92,-0.9
-0.0815,-0.96,-0.86
-0.08148,-0.92,-0.86
-0.08146,-0.92,-0.82
-0.08144,-0.84,-0.82
-0.08142,-0.88,-0.82
-0.0814,-0.84,-0.78
-0.08138,-0.84,-0.78
-0.08136,-0.84,-0.74
-0.08134,-0.8,-0.7
-0.08132,-0.8,-0.74
-0.0813,-0.76,-0.7
-0.08128,-0.76,-0.62
-0.08126,-0.72,-0.66
-0.08124,-0.68,-0.62
-0.08122,-0.64,-0.58
-0.0812,-0.64,-0.58
-0.08118,-0.6,-0.58
-0.08116,-0.56,-0.5
-0.08114,-0.56,-0.5
-0.08112,-0.56,-0.46
-0.0811,-0.52,-0.38
-0.08108,-0.48,-0.38
-0.08106,-0.44,-0.34
-0.08104,-0.44,-0.34
-0.08102,-0.4,-0.3
-0.081,-0.36,-0.26
-0.08098,-0.32,-0.22
-0.08096,-0.28,-0.22
-0.08094,-0.28,-0.18
-0.08092,-0.24,-0.09999999
-0.0809,-0.16,-0.09999999
-0.08088,-0.12,-0.06
-0.08086,-0.16,-0.09999999
-0.08084,-0.08,0.02
-0.08082,-0.08,0.02
-0.0808,-0.04,0.06
-0.08078,0,0.14
-0.08076,0.04,0.14
-0.08074,0.08,0.14
-0.08072,0.08,0.18
-0.0807,0.16,0.22
-0.08068,0.16,0.26
-0.08066,0.2,0.3
-0.08064,0.24,0.34
-0.08062,0.28,0.38
-0.0806,0.32,0.38
-0.08058,0.32,0.46
-0.08056,0.36,0.46
-0.08054,0.4,0.46
-0.08052,0.4,0.5
-0.0805,0.44,0.54
-0.08048,0.48,0.54
-0.08046,0.52,0.58
-0.08044,0.52,0.62
-0.08042,0.56,0.66
-0.0804,0.6,0.66
-0.08038,0.64,0.7
-0.08036,0.64,0.7
-0.08034,0.64,0.74
-0.08032,0.68,0.74
-0.0803,0.68,0.78
-0.08028,0.76,0.82
-0.08026,0.76,0.82
-0.08024,0.72,0.86
-0.08022,0.8,0.86
-0.0802,0.8,0.86
-0.08018,0.8,0.9
-0.08016,0.88,0.9
-0.08014,0.88,0.94
-0.08012,0.88,0.94
-0.0801,0.88,0.98
-0.08008,0.92,0.94
-0.08006,0.92,1.02
-0.08004,0.96,0.94
-0.08002,0.92,1.02
-0.08,0.96,1.02
-0.07998,0.96,1.02
-0.07996,0.96,0.98
-0.07994,1,1.02
-0.07992,1,1.02
-0.0799,1,1.02
-0.07988,1,1.06
-0.07986,1,1.02
-0.07984,1,1.06
-0.07982,1,1.02
-0.0798,1,0.98
-0.07978,0.96,0.98
-0.07976,0.96,1.02
-0.07974,1,1.02
-0.07972,0.96,0.98
-0.0797,0.96,0.98
-0.07968,1,0.98
-0.07966,0.96,0.98
-0.07964,0.96,0.98
-0.07962,0.96,0.9
-0.0796,0.92,0.9
